digraph G {
    compound=true;
    graph [
        color = "white",
        splines = "line",
    ];
    edge  [
        penwidth = "0.8" ];

a [shape=ellipse];
b [shape=ellipse ];
c [shape=ellipse];
d [shape=ellipse];

start [label="..." shape=rectangle]

  start -> a
  start -> b
  start -> c
  start -> d

a -> ap [label="a+"]
a -> am [label="a-"]
b -> bp [label="b+"]
b -> bm [label="b-"]
c -> cp [label="c+"]
c -> cm [label="c-"]
d -> dp [label="d+"]
d -> dm [label="d-"]

ap [label="a+" shape=triangle];
am [label="a-" shape=triangle];
bp [label="b+" shape=triangle];
bm [label="b-" shape=triangle style=filled fillcolor=lightgrey]
cp [label="c+" shape=triangle];
cm [label="c-" shape=triangle];
dp [label="d+" shape=triangle style=filled fillcolor=lightgrey]
dm [label="d-" shape=triangle style=filled fillcolor=lightgrey]



}
