<?xml version="1.0" encoding="UTF-8" standalone="no"?>
<!-- Created with Inkscape (http://www.inkscape.org/) -->

<svg
   xmlns:dc="http://purl.org/dc/elements/1.1/"
   xmlns:cc="http://creativecommons.org/ns#"
   xmlns:rdf="http://www.w3.org/1999/02/22-rdf-syntax-ns#"
   xmlns:svg="http://www.w3.org/2000/svg"
   xmlns="http://www.w3.org/2000/svg"
   xmlns:sodipodi="http://sodipodi.sourceforge.net/DTD/sodipodi-0.dtd"
   xmlns:inkscape="http://www.inkscape.org/namespaces/inkscape"
   width="116.9225"
   height="136.98712"
   id="svg9578"
   version="1.1"
   inkscape:version="0.91 r"
   sodipodi:docname="net02small.svg">
  <defs
     id="defs9580">
    <clipPath
       clipPathUnits="userSpaceOnUse"
       id="clipPath3954-3-6-5-6-25">
      <path
         inkscape:connector-curvature="0"
         d="M 0,0 37,0 37,30 0,30 0,0 Z"
         id="path3956-4-0-8-7-6" />
    </clipPath>
    <clipPath
       clipPathUnits="userSpaceOnUse"
       id="clipPath3954-3-6-5-6-9-1">
      <path
         inkscape:connector-curvature="0"
         d="M 0,0 37,0 37,30 0,30 0,0 Z"
         id="path3956-4-0-8-7-2-8" />
    </clipPath>
    <clipPath
       clipPathUnits="userSpaceOnUse"
       id="clipPath3954-3-6-5-6-9">
      <path
         inkscape:connector-curvature="0"
         d="M 0,0 37,0 37,30 0,30 0,0 Z"
         id="path3956-4-0-8-7-2" />
    </clipPath>
    <clipPath
       clipPathUnits="userSpaceOnUse"
       id="clipPath3954-3-6-6-6-5">
      <path
         inkscape:connector-curvature="0"
         d="M 0,0 37,0 37,30 0,30 0,0 Z"
         id="path3956-4-0-5-5-8" />
    </clipPath>
    <clipPath
       clipPathUnits="userSpaceOnUse"
       id="clipPath3954-3-6-6-6-5-2">
      <path
         inkscape:connector-curvature="0"
         d="M 0,0 37,0 37,30 0,30 0,0 Z"
         id="path3956-4-0-5-5-8-5" />
    </clipPath>
    <clipPath
       clipPathUnits="userSpaceOnUse"
       id="clipPath3954-3-6-6-6-5-1">
      <path
         inkscape:connector-curvature="0"
         d="M 0,0 37,0 37,30 0,30 0,0 Z"
         id="path3956-4-0-5-5-8-1" />
    </clipPath>
    <clipPath
       clipPathUnits="userSpaceOnUse"
       id="clipPath3954-3-6-6-6-5-2-1">
      <path
         inkscape:connector-curvature="0"
         d="M 0,0 37,0 37,30 0,30 0,0 Z"
         id="path3956-4-0-5-5-8-5-1" />
    </clipPath>
    <clipPath
       clipPathUnits="userSpaceOnUse"
       id="clipPath3954-3-6-5-6-25-6">
      <path
         inkscape:connector-curvature="0"
         d="M 0,0 37,0 37,30 0,30 0,0 Z"
         id="path3956-4-0-8-7-6-7" />
    </clipPath>
    <clipPath
       clipPathUnits="userSpaceOnUse"
       id="clipPath3954-3-6-6-6-5-2-1-4">
      <path
         inkscape:connector-curvature="0"
         d="M 0,0 37,0 37,30 0,30 0,0 Z"
         id="path3956-4-0-5-5-8-5-1-8" />
    </clipPath>
    <clipPath
       clipPathUnits="userSpaceOnUse"
       id="clipPath3954-3-6-6-6-5-2-1-4-7">
      <path
         inkscape:connector-curvature="0"
         d="M 0,0 37,0 37,30 0,30 0,0 Z"
         id="path3956-4-0-5-5-8-5-1-8-9" />
    </clipPath>
    <clipPath
       clipPathUnits="userSpaceOnUse"
       id="clipPath3954-3-6-6-6-5-2-4">
      <path
         inkscape:connector-curvature="0"
         d="M 0,0 37,0 37,30 0,30 0,0 Z"
         id="path3956-4-0-5-5-8-5-8" />
    </clipPath>
    <clipPath
       clipPathUnits="userSpaceOnUse"
       id="clipPath3954-3-6-6-6-5-2-14">
      <path
         inkscape:connector-curvature="0"
         d="M 0,0 37,0 37,30 0,30 0,0 Z"
         id="path3956-4-0-5-5-8-5-3" />
    </clipPath>
    <clipPath
       clipPathUnits="userSpaceOnUse"
       id="clipPath3954-3-6-6-6-5-2-14-2">
      <path
         inkscape:connector-curvature="0"
         d="M 0,0 37,0 37,30 0,30 0,0 Z"
         id="path3956-4-0-5-5-8-5-3-7" />
    </clipPath>
    <clipPath
       clipPathUnits="userSpaceOnUse"
       id="clipPath3954-3-6-6-6-5-1-1">
      <path
         inkscape:connector-curvature="0"
         d="M 0,0 37,0 37,30 0,30 0,0 Z"
         id="path3956-4-0-5-5-8-1-1" />
    </clipPath>
  </defs>
  <sodipodi:namedview
     id="base"
     pagecolor="#ffffff"
     bordercolor="#666666"
     borderopacity="1.0"
     inkscape:pageopacity="0.0"
     inkscape:pageshadow="2"
     inkscape:zoom="5.6"
     inkscape:cx="37.857018"
     inkscape:cy="62.860423"
     inkscape:document-units="px"
     inkscape:current-layer="g3781"
     showgrid="false"
     inkscape:window-width="1920"
     inkscape:window-height="1145"
     inkscape:window-x="-2"
     inkscape:window-y="-3"
     inkscape:window-maximized="1"
     fit-margin-top="0"
     fit-margin-left="0"
     fit-margin-right="0"
     fit-margin-bottom="0" />
  <metadata
     id="metadata9583">
    <rdf:RDF>
      <cc:Work
         rdf:about="">
        <dc:format>image/svg+xml</dc:format>
        <dc:type
           rdf:resource="http://purl.org/dc/dcmitype/StillImage" />
        <dc:title></dc:title>
      </cc:Work>
    </rdf:RDF>
  </metadata>
  <g
     inkscape:label="Layer 1"
     inkscape:groupmode="layer"
     id="layer1"
     transform="translate(-327.59619,-161.2396)">
    <g
       id="g4446">
      <g
         id="g13280"
         transform="translate(1013.8092,-364.53297)">
        <g
           id="g3781">
          <path
             inkscape:connector-curvature="0"
             inkscape:connector-type="polyline"
             id="path27446"
             d="m -628.01911,592.92814 0.0445,-45.46879"
             style="fill:none;stroke:#000000;stroke-width:1px;stroke-linecap:butt;stroke-linejoin:miter;stroke-opacity:1"
             inkscape:connection-end-point="d4"
             inkscape:connection-end="#g26636"
             inkscape:connection-start-point="d4"
             inkscape:connection-start="#g12-4" />
          <g
             transform="matrix(0.04878329,0,0,-0.04878329,-637.09537,605.11538)"
             id="g12-4">
            <path
               id="path14-1"
               style="fill:#000000;fill-opacity:1;fill-rule:nonzero;stroke:none"
               d="m 369.859,178.301 c 0,-39.508 -82.347,-71.528 -183.925,-71.528 -101.5824,0 -183.93009,32.02 -183.93009,71.528 l 0,-104.7697 c 0,-39.504 82.34769,-71.52739 183.93009,-71.52739 101.578,0 183.925,32.02339 183.925,71.52739 l 0,104.7697"
               inkscape:connector-curvature="0" />
            <path
               id="path16-5"
               style="fill:none;stroke:#ffffff;stroke-width:4;stroke-linecap:butt;stroke-linejoin:miter;stroke-miterlimit:4;stroke-dasharray:none;stroke-opacity:1"
               d="m 369.859,178.301 c 0,-39.508 -82.347,-71.528 -183.925,-71.528 -101.5824,0 -183.93009,32.02 -183.93009,71.528 l 0,-104.7697 c 0,-39.504 82.34769,-71.52739 183.93009,-71.52739 101.578,0 183.925,32.02339 183.925,71.52739 l 0,104.7697 z"
               inkscape:connector-curvature="0" />
            <path
               id="path18-7"
               style="fill:#000000;fill-opacity:1;fill-rule:nonzero;stroke:none"
               d="m 185.934,106.773 c 101.578,0 183.925,32.02 183.925,71.528 0,39.5 -82.347,71.523 -183.925,71.523 -101.5824,0 -183.93009,-32.023 -183.93009,-71.523 0,-39.508 82.34769,-71.528 183.93009,-71.528"
               inkscape:connector-curvature="0" />
            <path
               id="path20-1"
               style="fill:none;stroke:#ffffff;stroke-width:4;stroke-linecap:butt;stroke-linejoin:miter;stroke-miterlimit:4;stroke-dasharray:none;stroke-opacity:1"
               d="m 185.934,106.773 c 101.578,0 183.925,32.02 183.925,71.528 0,39.5 -82.347,71.523 -183.925,71.523 -101.5824,0 -183.93009,-32.023 -183.93009,-71.523 0,-39.508 82.34769,-71.528 183.93009,-71.528 z"
               inkscape:connector-curvature="0" />
            <path
               id="path22-0"
               style="fill:#ffffff;fill-opacity:1;fill-rule:nonzero;stroke:none"
               d="m 143.926,206.27 15.191,-22.79 -57.426,-13.269 12.547,10.453 -88.7458,15.16 22.2617,16.696 85.6371,-14.508 10.535,8.258"
               inkscape:connector-curvature="0" />
            <path
               id="path24-4"
               style="fill:#ffffff;fill-opacity:1;fill-rule:nonzero;stroke:none"
               d="m 224.727,151.02 -10.36,23.484 51.797,10.355 -8.98,-8.054 86.328,-14.735 -20.719,-16.578 -85.805,16.113 -12.261,-10.585"
               inkscape:connector-curvature="0" />
            <path
               id="path26-2"
               style="fill:#ffffff;fill-opacity:1;fill-rule:nonzero;stroke:none"
               d="m 196.41,218.703 58.016,15.883 0.687,-24.863 -14.504,2.761 -28.312,-23.48 -27.02,3.934 29.227,22.98 -18.094,2.785"
               inkscape:connector-curvature="0" />
            <path
               id="path28-2"
               style="fill:#ffffff;fill-opacity:1;fill-rule:nonzero;stroke:none"
               d="m 171.547,129.609 -55.246,-10.355 -2.071,25.551 15.883,-3.453 30.41,25.968 26.911,-4.558 -32.457,-28.313 16.57,-4.84"
               inkscape:connector-curvature="0" />
          </g>
          <text
             sodipodi:linespacing="125%"
             id="text16557-4-90"
             y="588.07031"
             x="-650.59375"
             style="font-style:normal;font-weight:normal;font-size:10px;line-height:125%;font-family:Sans;letter-spacing:0px;word-spacing:0px;fill:#000000;fill-opacity:1;stroke:none"
             xml:space="preserve"><tspan
               y="588.07031"
               x="-650.59375"
               id="tspan16559-7-9"
               sodipodi:role="line">gateway</tspan></text>
          <g
             transform="translate(-1073.4222,66.299688)"
             id="g26636">
            <g
               id="g12-2"
               transform="matrix(0.05556752,0,0,-0.05556752,422.57456,494.47686)"
               style="stroke-width:9.01549816;stroke-miterlimit:4;stroke-dasharray:none">
              <path
                 inkscape:connector-curvature="0"
                 d="m 285.785,422.332 c -144,28.75 -220.0037,-45 -207.9998,-108.75 L 78.75,310.109 C -33.457,291.012 -4.05078,158.582 49.7813,158.582 l 5.3007,0.172 C 41.5234,96.5273 172.656,33.1953 245.785,64.832 l 4.695,5.1524 C 276.563,14.0195 369.184,4.67188 460.785,2.33203 540.172,0.308594 586.496,6.58984 620.535,41.3828 l 5.25,-1.5508 c 127.07,-10.2109 184.942,77.555 157.16,140.578 l 6.84,1.922 c 43.309,11.457 48.309,111.457 -26,126.25 l 1.418,3.875 c 32.277,65.055 -43.82,126.402 -149.418,114.875 l -7.32,3.82 c -75.574,68.442 -293.141,57.286 -318.336,-10.406 l -4.344,1.586"
                 style="fill:#ffffff;fill-opacity:1;fill-rule:nonzero;stroke:none"
                 id="path14-2" />
              <path
                 inkscape:connector-curvature="0"
                 d="m 285.785,422.332 c -144,28.75 -220.0037,-45 -207.9998,-108.75 L 78.75,310.109 C -33.457,291.012 -4.05078,158.582 49.7813,158.582 l 5.3007,0.172 C 41.5234,96.5273 172.656,33.1953 245.785,64.832 l 4.695,5.1524 C 276.563,14.0195 369.184,4.67188 460.785,2.33203 540.172,0.308594 586.496,6.58984 620.535,41.3828 l 5.25,-1.5508 c 127.07,-10.2109 184.942,77.555 157.16,140.578 l 6.84,1.922 c 43.309,11.457 48.309,111.457 -26,126.25 l 1.418,3.875 c 32.277,65.055 -43.82,126.402 -149.418,114.875 l -7.32,3.82 c -75.574,68.442 -293.141,57.286 -318.336,-10.406 l -4.344,1.586 z"
                 style="fill:none;stroke:#000000;stroke-width:9.01549816;stroke-linecap:butt;stroke-linejoin:miter;stroke-miterlimit:4;stroke-dasharray:none;stroke-opacity:1"
                 id="path16-4" />
            </g>
            <text
               sodipodi:linespacing="125%"
               id="text16557-6-793-9"
               y="485.64548"
               x="425.90796"
               style="font-style:normal;font-weight:normal;font-size:10px;line-height:125%;font-family:Sans;letter-spacing:0px;word-spacing:0px;fill:#000000;fill-opacity:1;stroke:none"
               xml:space="preserve"><tspan
                 id="tspan17207-4"
                 y="485.64548"
                 x="425.90796"
                 sodipodi:role="line">Internet</tspan></text>
          </g>
          <rect
             style="opacity:1;fill:none;stroke:#000000;stroke-width:1px;stroke-linecap:butt;stroke-linejoin:miter;stroke-opacity:0.50196078"
             id="rect3594-3"
             width="33.623005"
             height="127.35399"
             x="-603.41351"
             y="534.9057" />
          <text
             sodipodi:linespacing="125%"
             id="text16557-4-90-9-7"
             y="543.82587"
             x="-603.09723"
             style="font-style:normal;font-weight:normal;font-size:10px;line-height:125%;font-family:Sans;letter-spacing:0px;word-spacing:0px;opacity:1;fill:#000000;fill-opacity:1;stroke:none"
             xml:space="preserve"><tspan
               y="543.82587"
               x="-603.09723"
               id="tspan16559-7-9-5-2"
               sodipodi:role="line">B</tspan></text>
          <g
             id="g15680"
             transform="translate(114.57143,-23.985168)">
            <g
               style="fill:#000000;fill-opacity:1"
               transform="matrix(0.85697544,0,0,-0.85697544,-784.6223,629.95613)"
               id="g3942-9-0-9-8">
              <g
                 style="fill:#000000;fill-opacity:1"
                 transform="matrix(0.7,0,0,0.7,86.262,13.311)"
                 id="g3944-5-0-49-6">
                <g
                   style="fill:#000000;fill-opacity:1"
                   id="g3946-4-09-4-3">
                  <g
                     style="fill:#000000;fill-opacity:1"
                     id="g3948-4-6-5-3">
                    <g
                       style="fill:#000000;fill-opacity:1"
                       id="g3950-8-8-36-4">
                      <g
                         style="fill:#000000;fill-opacity:1"
                         clip-path="url(#clipPath3954-3-6-6-6-5-2)"
                         id="g3952-0-2-1-9">
                        <g
                           style="fill:#000000;fill-opacity:1"
                           transform="scale(0.1,0.1)"
                           id="g3958-4-7-0-4">
                          <path
                             inkscape:connector-curvature="0"
                             id="path3960-0-1-1-7"
                             style="fill:#000000;fill-opacity:1;stroke:#000000;stroke-width:4;stroke-linecap:round;stroke-linejoin:round;stroke-miterlimit:4;stroke-dasharray:none;stroke-opacity:1"
                             d="m 330.953,44.0039 c 4.07,4.8867 -18.16,11.5195 6.863,15.6289 15.985,2.6289 64.391,31.082 -49.132,32.5625" />
                          <path
                             inkscape:connector-curvature="0"
                             id="path3962-6-2-0-6"
                             style="fill:#000000;fill-opacity:1;fill-rule:nonzero;stroke:none"
                             d="m 71.25,52.3242 183.516,0 0,27.7109 -183.516,0 0,-27.7109 z" />
                          <path
                             inkscape:connector-curvature="0"
                             id="path3964-0-4-8-6"
                             style="fill:#000000;fill-opacity:1;stroke:#ffffff;stroke-width:4;stroke-linecap:round;stroke-linejoin:round;stroke-miterlimit:4;stroke-dasharray:none;stroke-opacity:1"
                             d="m 71.25,52.3242 183.516,0 0,27.7109 -183.516,0 0,-27.7109 z" />
                          <path
                             inkscape:connector-curvature="0"
                             id="path3966-5-0-8-8"
                             style="fill:#000000;fill-opacity:1;fill-rule:nonzero;stroke:none"
                             d="m 254.586,52.2227 0,27.8125 37.019,37.6948 0,-28.4878 -37.019,-37.0195" />
                          <path
                             inkscape:connector-curvature="0"
                             id="path3968-6-5-3-3"
                             style="fill:#000000;fill-opacity:1;stroke:#ffffff;stroke-width:4;stroke-linecap:round;stroke-linejoin:round;stroke-miterlimit:4;stroke-dasharray:none;stroke-opacity:1"
                             d="m 254.586,52.2227 0,27.8125 37.019,37.6948 0,-28.4878 -37.019,-37.0195 z" />
                          <path
                             inkscape:connector-curvature="0"
                             id="path3970-5-8-42-6"
                             style="fill:#000000;fill-opacity:1;fill-rule:nonzero;stroke:none"
                             d="m 71.25,47.3242 183.516,0 0,32.7109 -183.516,0 0,-32.7109 z" />
                          <path
                             inkscape:connector-curvature="0"
                             id="path3972-4-4-3-9"
                             style="fill:#000000;fill-opacity:1;stroke:#ffffff;stroke-width:4;stroke-linecap:round;stroke-linejoin:round;stroke-miterlimit:4;stroke-dasharray:none;stroke-opacity:1"
                             d="m 71.25,47.3242 183.516,0 0,32.7109 -183.516,0 0,-32.7109 z" />
                          <path
                             inkscape:connector-curvature="0"
                             id="path3974-9-4-3-4"
                             style="fill:#000000;fill-opacity:1;fill-rule:nonzero;stroke:none"
                             d="m 254.586,47.2227 0,32.8125 37.019,37.6948 0,-33.4878 -37.019,-37.0195" />
                          <path
                             inkscape:connector-curvature="0"
                             id="path3976-4-53-7-7"
                             style="fill:#000000;fill-opacity:1;stroke:#ffffff;stroke-width:4;stroke-linecap:round;stroke-linejoin:round;stroke-miterlimit:4;stroke-dasharray:none;stroke-opacity:1"
                             d="m 254.586,47.2227 0,32.8125 37.019,37.6948 0,-33.4878 -37.019,-37.0195 z" />
                          <path
                             inkscape:connector-curvature="0"
                             id="path3978-6-9-1-5"
                             style="fill:#000000;fill-opacity:1;fill-rule:nonzero;stroke:none"
                             d="m 304.453,122.73 -25.937,-37.6948 -228.3754,0 36.75,37.6948 217.5624,0" />
                          <path
                             inkscape:connector-curvature="0"
                             id="path3980-6-6-9-8"
                             style="fill:#000000;fill-opacity:1;stroke:#ffffff;stroke-width:4;stroke-linecap:round;stroke-linejoin:round;stroke-miterlimit:4;stroke-dasharray:none;stroke-opacity:1"
                             d="m 304.453,122.73 -25.937,-37.6948 -228.3754,0 36.75,37.6948 217.5624,0 z" />
                          <path
                             inkscape:connector-curvature="0"
                             id="path3982-6-3-9-8"
                             style="fill:#000000;fill-opacity:1;fill-rule:nonzero;stroke:none"
                             d="m 49.5859,72.3242 218.512,0 0,12.7109 -218.512,0 0,-12.7109 z" />
                          <path
                             inkscape:connector-curvature="0"
                             id="path3984-1-9-2-8"
                             style="fill:#000000;fill-opacity:1;stroke:#ffffff;stroke-width:4;stroke-linecap:round;stroke-linejoin:round;stroke-miterlimit:4;stroke-dasharray:none;stroke-opacity:1"
                             d="m 49.5859,72.3242 218.512,0 0,12.7109 -218.512,0 0,-12.7109 z" />
                          <path
                             inkscape:connector-curvature="0"
                             id="path3986-9-2-5-3"
                             style="fill:#000000;fill-opacity:1;fill-rule:nonzero;stroke:none"
                             d="m 267.914,72.2227 0,12.8125 37.027,37.6948 0,-13.488 -37.027,-37.0193" />
                          <path
                             inkscape:connector-curvature="0"
                             id="path3988-7-7-8-7"
                             style="fill:#000000;fill-opacity:1;stroke:#ffffff;stroke-width:4;stroke-linecap:round;stroke-linejoin:round;stroke-miterlimit:4;stroke-dasharray:none;stroke-opacity:1"
                             d="m 267.914,72.2227 0,12.8125 37.027,37.6948 0,-13.488 -37.027,-37.0193 z" />
                          <path
                             inkscape:connector-curvature="0"
                             id="path3990-3-7-5-4"
                             style="fill:#000000;fill-opacity:1;fill-rule:nonzero;stroke:none"
                             d="m 304.453,122.73 -25.937,-37.6948 -228.3754,0 36.75,37.6948 217.5624,0" />
                          <path
                             inkscape:connector-curvature="0"
                             id="path3992-9-0-5-8"
                             style="fill:#000000;fill-opacity:1;stroke:#ffffff;stroke-width:4;stroke-linecap:round;stroke-linejoin:round;stroke-miterlimit:4;stroke-dasharray:none;stroke-opacity:1"
                             d="m 304.453,122.73 -25.937,-37.6948 -228.3754,0 36.75,37.6948 217.5624,0 z" />
                          <path
                             inkscape:connector-curvature="0"
                             id="path3994-6-6-1-1"
                             style="fill:#000000;fill-opacity:1;fill-rule:nonzero;stroke:none"
                             d="m 49.5859,72.3242 218.512,0 0,12.7109 -218.512,0 0,-12.7109 z" />
                          <path
                             inkscape:connector-curvature="0"
                             id="path3996-8-9-2-8"
                             style="fill:#000000;fill-opacity:1;stroke:#ffffff;stroke-width:4;stroke-linecap:round;stroke-linejoin:round;stroke-miterlimit:4;stroke-dasharray:none;stroke-opacity:1"
                             d="m 49.5859,72.3242 218.512,0 0,12.7109 -218.512,0 0,-12.7109 z" />
                          <path
                             inkscape:connector-curvature="0"
                             id="path3998-3-79-2-3"
                             style="fill:#000000;fill-opacity:1;fill-rule:nonzero;stroke:none"
                             d="m 267.914,72.2227 0,12.8125 37.027,37.6948 0,-13.488 -37.027,-37.0193" />
                          <path
                             inkscape:connector-curvature="0"
                             id="path4000-5-8-3-9"
                             style="fill:#000000;fill-opacity:1;stroke:#ffffff;stroke-width:4;stroke-linecap:round;stroke-linejoin:round;stroke-miterlimit:4;stroke-dasharray:none;stroke-opacity:1"
                             d="m 267.914,72.2227 0,12.8125 37.027,37.6948 0,-13.488 -37.027,-37.0193 z" />
                          <path
                             inkscape:connector-curvature="0"
                             id="path4002-7-9-36-0"
                             style="fill:#000000;fill-opacity:1;fill-rule:nonzero;stroke:none"
                             d="m 305.637,296.035 -197.332,0 -57.7542,-13.586 228.5822,0 26.504,13.586" />
                          <path
                             inkscape:connector-curvature="0"
                             id="path4004-7-10-4-0"
                             style="fill:#000000;fill-opacity:1;stroke:#ffffff;stroke-width:4;stroke-linecap:round;stroke-linejoin:round;stroke-miterlimit:4;stroke-dasharray:none;stroke-opacity:1"
                             d="m 305.637,296.035 -197.332,0 -57.7542,-13.586 228.5822,0 26.504,13.586 z" />
                          <path
                             inkscape:connector-curvature="0"
                             id="path4006-4-8-8-7"
                             style="fill:#000000;fill-opacity:1;fill-rule:nonzero;stroke:none"
                             d="m 269.258,101.039 -10.094,8.336 -185.414,0 9.7891,-8.336 185.7189,0" />
                          <path
                             inkscape:connector-curvature="0"
                             id="path4008-8-8-39-0"
                             style="fill:#000000;fill-opacity:1;stroke:#ffffff;stroke-width:4;stroke-linecap:round;stroke-linejoin:round;stroke-miterlimit:4;stroke-dasharray:none;stroke-opacity:1"
                             d="m 269.258,101.039 -10.094,8.336 -185.414,0 9.7891,-8.336 185.7189,0 z" />
                          <path
                             inkscape:connector-curvature="0"
                             id="path4010-5-8-6-8"
                             style="fill:#000000;fill-opacity:1;fill-rule:nonzero;stroke:none"
                             d="m 270.383,102.488 -12.778,8.551 47.27,25 -30.418,-30.098 -4.074,-3.453" />
                          <path
                             inkscape:connector-curvature="0"
                             id="path4012-0-0-6-0"
                             style="fill:#000000;fill-opacity:1;stroke:#ffffff;stroke-width:4;stroke-linecap:round;stroke-linejoin:round;stroke-miterlimit:4;stroke-dasharray:none;stroke-opacity:1"
                             d="m 270.383,102.488 -12.778,8.551 47.27,25 -30.418,-30.098 -4.074,-3.453 z" />
                          <path
                             inkscape:connector-curvature="0"
                             id="path4014-2-5-9-5"
                             style="fill:#000000;fill-opacity:1;fill-rule:nonzero;stroke:none"
                             d="m 279.133,282.449 0,-170.469 26.504,24.629 0,159.426 -26.504,-13.586" />
                          <path
                             inkscape:connector-curvature="0"
                             id="path4016-3-9-7-3"
                             style="fill:#000000;fill-opacity:1;stroke:#ffffff;stroke-width:4;stroke-linecap:round;stroke-linejoin:round;stroke-miterlimit:4;stroke-dasharray:none;stroke-opacity:1"
                             d="m 279.133,282.449 0,-170.469 26.504,24.629 0,159.426 -26.504,-13.586 z" />
                          <path
                             inkscape:connector-curvature="0"
                             id="path4018-0-3-6-9"
                             style="fill:#000000;fill-opacity:1;fill-rule:nonzero;stroke:none"
                             d="m 50.5508,110.105 228.582,0 0,172.344 -228.582,0 0,-172.344 z" />
                          <path
                             inkscape:connector-curvature="0"
                             id="path4020-6-1-9-0"
                             style="fill:#000000;fill-opacity:1;stroke:#ffffff;stroke-width:4;stroke-linecap:round;stroke-linejoin:round;stroke-miterlimit:4;stroke-dasharray:none;stroke-opacity:1"
                             d="m 50.5508,110.105 228.582,0 0,172.344 -228.582,0 0,-172.344 z" />
                          <path
                             inkscape:connector-curvature="0"
                             id="path4022-3-1-7-2"
                             style="fill:#000000;fill-opacity:1;fill-rule:nonzero;stroke:none"
                             d="m 259.926,2.60156 0,13.25784 28.597,39.5625 0,-24.2227 -28.597,-28.59764" />
                          <path
                             inkscape:connector-curvature="0"
                             id="path4024-6-0-0-8"
                             style="fill:#000000;fill-opacity:1;stroke:#ffffff;stroke-width:4;stroke-linecap:round;stroke-linejoin:round;stroke-miterlimit:4;stroke-dasharray:none;stroke-opacity:1"
                             d="m 259.926,2.60156 0,13.25784 28.597,39.5625 0,-24.2227 -28.597,-28.59764 z" />
                          <path
                             inkscape:connector-curvature="0"
                             id="path4026-9-9-6-8"
                             style="fill:#000000;fill-opacity:1;fill-rule:nonzero;stroke:none"
                             d="m 7.79297,2.60156 252.129,0 0,13.0586 -252.129,0 0,-13.0586 z" />
                          <path
                             inkscape:connector-curvature="0"
                             id="path4028-0-6-0-2"
                             style="fill:#000000;fill-opacity:1;stroke:#ffffff;stroke-width:4;stroke-linecap:round;stroke-linejoin:round;stroke-miterlimit:4;stroke-dasharray:none;stroke-opacity:1"
                             d="m 7.79297,2.60156 252.129,0 0,13.0586 -252.129,0 0,-13.0586 z" />
                          <path
                             inkscape:connector-curvature="0"
                             id="path4030-2-5-5-3"
                             style="fill:#000000;fill-opacity:1;fill-rule:nonzero;stroke:none"
                             d="m 331.625,13.0586 16.727,33.4414 -38.219,0 -16.719,-33.4414 38.211,0" />
                          <path
                             inkscape:connector-curvature="0"
                             id="path4032-6-4-9-7"
                             style="fill:#000000;fill-opacity:1;stroke:#ffffff;stroke-width:4;stroke-linecap:round;stroke-linejoin:round;stroke-miterlimit:4;stroke-dasharray:none;stroke-opacity:1"
                             d="m 331.625,13.0586 16.727,33.4414 -38.219,0 -16.719,-33.4414 38.211,0 z" />
                          <path
                             inkscape:connector-curvature="0"
                             id="path4034-5-9-9-2"
                             style="fill:#000000;fill-opacity:1;fill-rule:nonzero;stroke:none"
                             d="m 293.414,2.30859 38.2109,0 0,10.75 -38.2109,0 0,-10.75 z" />
                          <path
                             inkscape:connector-curvature="0"
                             id="path4036-3-6-6-7"
                             style="fill:#000000;fill-opacity:1;stroke:#ffffff;stroke-width:4;stroke-linecap:round;stroke-linejoin:round;stroke-miterlimit:4;stroke-dasharray:none;stroke-opacity:1"
                             d="m 293.414,2.30859 38.2109,0 0,10.75 -38.2109,0 0,-10.75 z" />
                          <path
                             inkscape:connector-curvature="0"
                             id="path4038-0-3-0-4"
                             style="fill:#000000;fill-opacity:1;fill-rule:nonzero;stroke:none"
                             d="M 331.328,2.01172 331.43,13.0586 348.148,46.5 348.051,23.5117 331.328,2.01172" />
                          <path
                             inkscape:connector-curvature="0"
                             id="path4040-3-4-8-9"
                             style="fill:#000000;fill-opacity:1;stroke:#ffffff;stroke-width:4;stroke-linecap:round;stroke-linejoin:round;stroke-miterlimit:4;stroke-dasharray:none;stroke-opacity:1"
                             d="M 331.328,2.01172 331.43,13.0586 348.148,46.5 348.051,23.5117 331.328,2.01172 Z" />
                          <path
                             inkscape:connector-curvature="0"
                             id="path4042-0-7-9-5"
                             style="fill:#000000;fill-opacity:1;fill-rule:nonzero;stroke:none"
                             d="m 259.926,15.6602 -251.32834,0 28.59764,39.7617 251.3277,0 -28.597,-39.7617" />
                          <path
                             inkscape:connector-curvature="0"
                             id="path4044-6-7-6-4"
                             style="fill:#000000;fill-opacity:1;stroke:#ffffff;stroke-width:4;stroke-linecap:round;stroke-linejoin:round;stroke-miterlimit:4;stroke-dasharray:none;stroke-opacity:1"
                             d="m 259.926,15.6602 -251.32834,0 28.59764,39.7617 251.3277,0 -28.597,-39.7617 z" />
                          <path
                             inkscape:connector-curvature="0"
                             id="path4046-6-1-9-7"
                             style="fill:#000000;fill-opacity:1;fill-rule:nonzero;stroke:none"
                             d="m 83.75,264.453 160.543,0 c 10.441,0 18.914,-8.469 18.914,-18.914 l 0,-101.422 c 0,-10.449 -8.473,-18.918 -18.914,-18.918 l -160.543,0 c -10.4453,0 -18.9141,8.469 -18.9141,18.918 l 0,101.422 c 0,10.445 8.4688,18.914 18.9141,18.914" />
                          <path
                             inkscape:connector-curvature="0"
                             id="path4048-1-4-41-1"
                             style="fill:#000000;fill-opacity:1;stroke:#ffffff;stroke-width:4;stroke-linecap:round;stroke-linejoin:round;stroke-miterlimit:4;stroke-dasharray:none;stroke-opacity:1"
                             d="m 83.75,264.453 160.543,0 c 10.441,0 18.914,-8.469 18.914,-18.914 l 0,-101.422 c 0,-10.449 -8.473,-18.918 -18.914,-18.918 l -160.543,0 c -10.4453,0 -18.9141,8.469 -18.9141,18.918 l 0,101.422 c 0,10.445 8.4688,18.914 18.9141,18.914 z" />
                        </g>
                      </g>
                    </g>
                  </g>
                </g>
                <g
                   style="fill:#000000;fill-opacity:1"
                   transform="translate(-86.262,-13.311)"
                   id="g4050-5-9-0-3" />
              </g>
            </g>
            <g
               transform="translate(-918.42774,73.21119)"
               id="g27495-9-2">
              <path
                 inkscape:transform-center-y="1.5565108"
                 transform="matrix(0.34175571,0,0,0.34175571,257.28745,509.62763)"
                 d="m -88.928573,70.093126 -15.777067,-27.326679 31.554132,-10e-7 z"
                 inkscape:randomized="0"
                 inkscape:rounded="0"
                 inkscape:flatsided="true"
                 sodipodi:arg2="2.6179939"
                 sodipodi:arg1="1.5707963"
                 sodipodi:r2="9.1088934"
                 sodipodi:r1="18.217787"
                 sodipodi:cy="51.87534"
                 sodipodi:cx="-88.928574"
                 sodipodi:sides="3"
                 id="path27450-2-6-5"
                 style="fill:none;stroke:#ff0000;stroke-width:2.46374822;stroke-miterlimit:4;stroke-dasharray:none;stroke-opacity:1"
                 sodipodi:type="star" />
              <text
                 inkscape:transform-center-y="1.894036"
                 inkscape:transform-center-x="0.39648438"
                 sodipodi:linespacing="125%"
                 id="text27470-5-4-6"
                 y="530.88123"
                 x="225.29208"
                 style="font-style:normal;font-weight:normal;font-size:10px;line-height:125%;font-family:Sans;letter-spacing:0px;word-spacing:0px;fill:#000000;fill-opacity:1;stroke:none"
                 xml:space="preserve"><tspan
                   style="font-size:8px"
                   y="530.88123"
                   x="225.29208"
                   id="tspan27472-6-4-57"
                   sodipodi:role="line">!</tspan></text>
            </g>
          </g>
          <flowRoot
             transform="translate(-813.15661,455.64883)"
             xml:space="preserve"
             id="flowRoot3860-2-2-2-2"
             style="font-style:normal;font-weight:normal;font-size:10px;line-height:125%;font-family:Sans;letter-spacing:0px;word-spacing:0px;fill:#000000;fill-opacity:1;stroke:none"><flowRegion
               id="flowRegion3862-6-5-6-3"><rect
                 id="rect3864-4-7-5-10"
                 width="32.324875"
                 height="15.152287"
                 x="210.86934"
                 y="67.57856" /></flowRegion><flowPara
               id="flowPara3866-6-3-8-4">p=0.8</flowPara></flowRoot>          <path
             style="display:inline;fill:none;stroke:#000000;stroke-width:1px;stroke-linecap:butt;stroke-linejoin:miter;stroke-opacity:1"
             d="m -619.05243,598.94269 17.4143,-0.0586"
             id="path15739-3"
             inkscape:connector-type="polyline"
             inkscape:connector-curvature="0"
             inkscape:connection-start-point="d4"
             inkscape:connection-start="#g12-4" />
          <g
             id="g15437"
             transform="translate(-858.88908,175.8612)">
            <g
               style="fill:#000000;fill-opacity:1"
               transform="matrix(0.85697544,0,0,-0.85697544,188.54301,397.45499)"
               id="g3942-9-0-9-8-7">
              <g
                 style="fill:#000000;fill-opacity:1"
                 transform="matrix(0.7,0,0,0.7,86.262,13.311)"
                 id="g3944-5-0-49-6-4">
                <g
                   style="fill:#000000;fill-opacity:1"
                   id="g3946-4-09-4-3-7">
                  <g
                     style="fill:#000000;fill-opacity:1"
                     id="g3948-4-6-5-3-5">
                    <g
                       style="fill:#000000;fill-opacity:1"
                       id="g3950-8-8-36-4-5">
                      <g
                         style="fill:#000000;fill-opacity:1"
                         clip-path="url(#clipPath3954-3-6-6-6-5-2-1-4)"
                         id="g3952-0-2-1-9-9">
                        <g
                           style="fill:#000000;fill-opacity:1"
                           transform="scale(0.1,0.1)"
                           id="g3958-4-7-0-4-1">
                          <path
                             inkscape:connector-curvature="0"
                             id="path3960-0-1-1-7-3"
                             style="fill:#000000;fill-opacity:1;stroke:#000000;stroke-width:4;stroke-linecap:round;stroke-linejoin:round;stroke-miterlimit:4;stroke-dasharray:none;stroke-opacity:1"
                             d="m 330.953,44.0039 c 4.07,4.8867 -18.16,11.5195 6.863,15.6289 15.985,2.6289 64.391,31.082 -49.132,32.5625" />
                          <path
                             inkscape:connector-curvature="0"
                             id="path3962-6-2-0-6-2"
                             style="fill:#000000;fill-opacity:1;fill-rule:nonzero;stroke:none"
                             d="m 71.25,52.3242 183.516,0 0,27.7109 -183.516,0 0,-27.7109 z" />
                          <path
                             inkscape:connector-curvature="0"
                             id="path3964-0-4-8-6-2"
                             style="fill:#000000;fill-opacity:1;stroke:#ffffff;stroke-width:4;stroke-linecap:round;stroke-linejoin:round;stroke-miterlimit:4;stroke-dasharray:none;stroke-opacity:1"
                             d="m 71.25,52.3242 183.516,0 0,27.7109 -183.516,0 0,-27.7109 z" />
                          <path
                             inkscape:connector-curvature="0"
                             id="path3966-5-0-8-8-8"
                             style="fill:#000000;fill-opacity:1;fill-rule:nonzero;stroke:none"
                             d="m 254.586,52.2227 0,27.8125 37.019,37.6948 0,-28.4878 -37.019,-37.0195" />
                          <path
                             inkscape:connector-curvature="0"
                             id="path3968-6-5-3-3-9"
                             style="fill:#000000;fill-opacity:1;stroke:#ffffff;stroke-width:4;stroke-linecap:round;stroke-linejoin:round;stroke-miterlimit:4;stroke-dasharray:none;stroke-opacity:1"
                             d="m 254.586,52.2227 0,27.8125 37.019,37.6948 0,-28.4878 -37.019,-37.0195 z" />
                          <path
                             inkscape:connector-curvature="0"
                             id="path3970-5-8-42-6-6"
                             style="fill:#000000;fill-opacity:1;fill-rule:nonzero;stroke:none"
                             d="m 71.25,47.3242 183.516,0 0,32.7109 -183.516,0 0,-32.7109 z" />
                          <path
                             inkscape:connector-curvature="0"
                             id="path3972-4-4-3-9-7"
                             style="fill:#000000;fill-opacity:1;stroke:#ffffff;stroke-width:4;stroke-linecap:round;stroke-linejoin:round;stroke-miterlimit:4;stroke-dasharray:none;stroke-opacity:1"
                             d="m 71.25,47.3242 183.516,0 0,32.7109 -183.516,0 0,-32.7109 z" />
                          <path
                             inkscape:connector-curvature="0"
                             id="path3974-9-4-3-4-4"
                             style="fill:#000000;fill-opacity:1;fill-rule:nonzero;stroke:none"
                             d="m 254.586,47.2227 0,32.8125 37.019,37.6948 0,-33.4878 -37.019,-37.0195" />
                          <path
                             inkscape:connector-curvature="0"
                             id="path3976-4-53-7-7-2"
                             style="fill:#000000;fill-opacity:1;stroke:#ffffff;stroke-width:4;stroke-linecap:round;stroke-linejoin:round;stroke-miterlimit:4;stroke-dasharray:none;stroke-opacity:1"
                             d="m 254.586,47.2227 0,32.8125 37.019,37.6948 0,-33.4878 -37.019,-37.0195 z" />
                          <path
                             inkscape:connector-curvature="0"
                             id="path3978-6-9-1-5-8"
                             style="fill:#000000;fill-opacity:1;fill-rule:nonzero;stroke:none"
                             d="m 304.453,122.73 -25.937,-37.6948 -228.3754,0 36.75,37.6948 217.5624,0" />
                          <path
                             inkscape:connector-curvature="0"
                             id="path3980-6-6-9-8-1"
                             style="fill:#000000;fill-opacity:1;stroke:#ffffff;stroke-width:4;stroke-linecap:round;stroke-linejoin:round;stroke-miterlimit:4;stroke-dasharray:none;stroke-opacity:1"
                             d="m 304.453,122.73 -25.937,-37.6948 -228.3754,0 36.75,37.6948 217.5624,0 z" />
                          <path
                             inkscape:connector-curvature="0"
                             id="path3982-6-3-9-8-3"
                             style="fill:#000000;fill-opacity:1;fill-rule:nonzero;stroke:none"
                             d="m 49.5859,72.3242 218.512,0 0,12.7109 -218.512,0 0,-12.7109 z" />
                          <path
                             inkscape:connector-curvature="0"
                             id="path3984-1-9-2-8-0"
                             style="fill:#000000;fill-opacity:1;stroke:#ffffff;stroke-width:4;stroke-linecap:round;stroke-linejoin:round;stroke-miterlimit:4;stroke-dasharray:none;stroke-opacity:1"
                             d="m 49.5859,72.3242 218.512,0 0,12.7109 -218.512,0 0,-12.7109 z" />
                          <path
                             inkscape:connector-curvature="0"
                             id="path3986-9-2-5-3-8"
                             style="fill:#000000;fill-opacity:1;fill-rule:nonzero;stroke:none"
                             d="m 267.914,72.2227 0,12.8125 37.027,37.6948 0,-13.488 -37.027,-37.0193" />
                          <path
                             inkscape:connector-curvature="0"
                             id="path3988-7-7-8-7-7"
                             style="fill:#000000;fill-opacity:1;stroke:#ffffff;stroke-width:4;stroke-linecap:round;stroke-linejoin:round;stroke-miterlimit:4;stroke-dasharray:none;stroke-opacity:1"
                             d="m 267.914,72.2227 0,12.8125 37.027,37.6948 0,-13.488 -37.027,-37.0193 z" />
                          <path
                             inkscape:connector-curvature="0"
                             id="path3990-3-7-5-4-5"
                             style="fill:#000000;fill-opacity:1;fill-rule:nonzero;stroke:none"
                             d="m 304.453,122.73 -25.937,-37.6948 -228.3754,0 36.75,37.6948 217.5624,0" />
                          <path
                             inkscape:connector-curvature="0"
                             id="path3992-9-0-5-8-6"
                             style="fill:#000000;fill-opacity:1;stroke:#ffffff;stroke-width:4;stroke-linecap:round;stroke-linejoin:round;stroke-miterlimit:4;stroke-dasharray:none;stroke-opacity:1"
                             d="m 304.453,122.73 -25.937,-37.6948 -228.3754,0 36.75,37.6948 217.5624,0 z" />
                          <path
                             inkscape:connector-curvature="0"
                             id="path3994-6-6-1-1-9"
                             style="fill:#000000;fill-opacity:1;fill-rule:nonzero;stroke:none"
                             d="m 49.5859,72.3242 218.512,0 0,12.7109 -218.512,0 0,-12.7109 z" />
                          <path
                             inkscape:connector-curvature="0"
                             id="path3996-8-9-2-8-5"
                             style="fill:#000000;fill-opacity:1;stroke:#ffffff;stroke-width:4;stroke-linecap:round;stroke-linejoin:round;stroke-miterlimit:4;stroke-dasharray:none;stroke-opacity:1"
                             d="m 49.5859,72.3242 218.512,0 0,12.7109 -218.512,0 0,-12.7109 z" />
                          <path
                             inkscape:connector-curvature="0"
                             id="path3998-3-79-2-3-2"
                             style="fill:#000000;fill-opacity:1;fill-rule:nonzero;stroke:none"
                             d="m 267.914,72.2227 0,12.8125 37.027,37.6948 0,-13.488 -37.027,-37.0193" />
                          <path
                             inkscape:connector-curvature="0"
                             id="path4000-5-8-3-9-7"
                             style="fill:#000000;fill-opacity:1;stroke:#ffffff;stroke-width:4;stroke-linecap:round;stroke-linejoin:round;stroke-miterlimit:4;stroke-dasharray:none;stroke-opacity:1"
                             d="m 267.914,72.2227 0,12.8125 37.027,37.6948 0,-13.488 -37.027,-37.0193 z" />
                          <path
                             inkscape:connector-curvature="0"
                             id="path4002-7-9-36-0-8"
                             style="fill:#000000;fill-opacity:1;fill-rule:nonzero;stroke:none"
                             d="m 305.637,296.035 -197.332,0 -57.7542,-13.586 228.5822,0 26.504,13.586" />
                          <path
                             inkscape:connector-curvature="0"
                             id="path4004-7-10-4-0-5"
                             style="fill:#000000;fill-opacity:1;stroke:#ffffff;stroke-width:4;stroke-linecap:round;stroke-linejoin:round;stroke-miterlimit:4;stroke-dasharray:none;stroke-opacity:1"
                             d="m 305.637,296.035 -197.332,0 -57.7542,-13.586 228.5822,0 26.504,13.586 z" />
                          <path
                             inkscape:connector-curvature="0"
                             id="path4006-4-8-8-7-4"
                             style="fill:#000000;fill-opacity:1;fill-rule:nonzero;stroke:none"
                             d="m 269.258,101.039 -10.094,8.336 -185.414,0 9.7891,-8.336 185.7189,0" />
                          <path
                             inkscape:connector-curvature="0"
                             id="path4008-8-8-39-0-6"
                             style="fill:#000000;fill-opacity:1;stroke:#ffffff;stroke-width:4;stroke-linecap:round;stroke-linejoin:round;stroke-miterlimit:4;stroke-dasharray:none;stroke-opacity:1"
                             d="m 269.258,101.039 -10.094,8.336 -185.414,0 9.7891,-8.336 185.7189,0 z" />
                          <path
                             inkscape:connector-curvature="0"
                             id="path4010-5-8-6-8-9"
                             style="fill:#000000;fill-opacity:1;fill-rule:nonzero;stroke:none"
                             d="m 270.383,102.488 -12.778,8.551 47.27,25 -30.418,-30.098 -4.074,-3.453" />
                          <path
                             inkscape:connector-curvature="0"
                             id="path4012-0-0-6-0-3"
                             style="fill:#000000;fill-opacity:1;stroke:#ffffff;stroke-width:4;stroke-linecap:round;stroke-linejoin:round;stroke-miterlimit:4;stroke-dasharray:none;stroke-opacity:1"
                             d="m 270.383,102.488 -12.778,8.551 47.27,25 -30.418,-30.098 -4.074,-3.453 z" />
                          <path
                             inkscape:connector-curvature="0"
                             id="path4014-2-5-9-5-3"
                             style="fill:#000000;fill-opacity:1;fill-rule:nonzero;stroke:none"
                             d="m 279.133,282.449 0,-170.469 26.504,24.629 0,159.426 -26.504,-13.586" />
                          <path
                             inkscape:connector-curvature="0"
                             id="path4016-3-9-7-3-4"
                             style="fill:#000000;fill-opacity:1;stroke:#ffffff;stroke-width:4;stroke-linecap:round;stroke-linejoin:round;stroke-miterlimit:4;stroke-dasharray:none;stroke-opacity:1"
                             d="m 279.133,282.449 0,-170.469 26.504,24.629 0,159.426 -26.504,-13.586 z" />
                          <path
                             inkscape:connector-curvature="0"
                             id="path4018-0-3-6-9-3"
                             style="fill:#000000;fill-opacity:1;fill-rule:nonzero;stroke:none"
                             d="m 50.5508,110.105 228.582,0 0,172.344 -228.582,0 0,-172.344 z" />
                          <path
                             inkscape:connector-curvature="0"
                             id="path4020-6-1-9-0-4"
                             style="fill:#000000;fill-opacity:1;stroke:#ffffff;stroke-width:4;stroke-linecap:round;stroke-linejoin:round;stroke-miterlimit:4;stroke-dasharray:none;stroke-opacity:1"
                             d="m 50.5508,110.105 228.582,0 0,172.344 -228.582,0 0,-172.344 z" />
                          <path
                             inkscape:connector-curvature="0"
                             id="path4022-3-1-7-2-9"
                             style="fill:#000000;fill-opacity:1;fill-rule:nonzero;stroke:none"
                             d="m 259.926,2.60156 0,13.25784 28.597,39.5625 0,-24.2227 -28.597,-28.59764" />
                          <path
                             inkscape:connector-curvature="0"
                             id="path4024-6-0-0-8-7"
                             style="fill:#000000;fill-opacity:1;stroke:#ffffff;stroke-width:4;stroke-linecap:round;stroke-linejoin:round;stroke-miterlimit:4;stroke-dasharray:none;stroke-opacity:1"
                             d="m 259.926,2.60156 0,13.25784 28.597,39.5625 0,-24.2227 -28.597,-28.59764 z" />
                          <path
                             inkscape:connector-curvature="0"
                             id="path4026-9-9-6-8-8"
                             style="fill:#000000;fill-opacity:1;fill-rule:nonzero;stroke:none"
                             d="m 7.79297,2.60156 252.129,0 0,13.0586 -252.129,0 0,-13.0586 z" />
                          <path
                             inkscape:connector-curvature="0"
                             id="path4028-0-6-0-2-0"
                             style="fill:#000000;fill-opacity:1;stroke:#ffffff;stroke-width:4;stroke-linecap:round;stroke-linejoin:round;stroke-miterlimit:4;stroke-dasharray:none;stroke-opacity:1"
                             d="m 7.79297,2.60156 252.129,0 0,13.0586 -252.129,0 0,-13.0586 z" />
                          <path
                             inkscape:connector-curvature="0"
                             id="path4030-2-5-5-3-6"
                             style="fill:#000000;fill-opacity:1;fill-rule:nonzero;stroke:none"
                             d="m 331.625,13.0586 16.727,33.4414 -38.219,0 -16.719,-33.4414 38.211,0" />
                          <path
                             inkscape:connector-curvature="0"
                             id="path4032-6-4-9-7-6"
                             style="fill:#000000;fill-opacity:1;stroke:#ffffff;stroke-width:4;stroke-linecap:round;stroke-linejoin:round;stroke-miterlimit:4;stroke-dasharray:none;stroke-opacity:1"
                             d="m 331.625,13.0586 16.727,33.4414 -38.219,0 -16.719,-33.4414 38.211,0 z" />
                          <path
                             inkscape:connector-curvature="0"
                             id="path4034-5-9-9-2-7"
                             style="fill:#000000;fill-opacity:1;fill-rule:nonzero;stroke:none"
                             d="m 293.414,2.30859 38.2109,0 0,10.75 -38.2109,0 0,-10.75 z" />
                          <path
                             inkscape:connector-curvature="0"
                             id="path4036-3-6-6-7-3"
                             style="fill:#000000;fill-opacity:1;stroke:#ffffff;stroke-width:4;stroke-linecap:round;stroke-linejoin:round;stroke-miterlimit:4;stroke-dasharray:none;stroke-opacity:1"
                             d="m 293.414,2.30859 38.2109,0 0,10.75 -38.2109,0 0,-10.75 z" />
                          <path
                             inkscape:connector-curvature="0"
                             id="path4038-0-3-0-4-8"
                             style="fill:#000000;fill-opacity:1;fill-rule:nonzero;stroke:none"
                             d="M 331.328,2.01172 331.43,13.0586 348.148,46.5 348.051,23.5117 331.328,2.01172" />
                          <path
                             inkscape:connector-curvature="0"
                             id="path4040-3-4-8-9-5"
                             style="fill:#000000;fill-opacity:1;stroke:#ffffff;stroke-width:4;stroke-linecap:round;stroke-linejoin:round;stroke-miterlimit:4;stroke-dasharray:none;stroke-opacity:1"
                             d="M 331.328,2.01172 331.43,13.0586 348.148,46.5 348.051,23.5117 331.328,2.01172 Z" />
                          <path
                             inkscape:connector-curvature="0"
                             id="path4042-0-7-9-5-4"
                             style="fill:#000000;fill-opacity:1;fill-rule:nonzero;stroke:none"
                             d="m 259.926,15.6602 -251.32834,0 28.59764,39.7617 251.3277,0 -28.597,-39.7617" />
                          <path
                             inkscape:connector-curvature="0"
                             id="path4044-6-7-6-4-2"
                             style="fill:#000000;fill-opacity:1;stroke:#ffffff;stroke-width:4;stroke-linecap:round;stroke-linejoin:round;stroke-miterlimit:4;stroke-dasharray:none;stroke-opacity:1"
                             d="m 259.926,15.6602 -251.32834,0 28.59764,39.7617 251.3277,0 -28.597,-39.7617 z" />
                          <path
                             inkscape:connector-curvature="0"
                             id="path4046-6-1-9-7-8"
                             style="fill:#000000;fill-opacity:1;fill-rule:nonzero;stroke:none"
                             d="m 83.75,264.453 160.543,0 c 10.441,0 18.914,-8.469 18.914,-18.914 l 0,-101.422 c 0,-10.449 -8.473,-18.918 -18.914,-18.918 l -160.543,0 c -10.4453,0 -18.9141,8.469 -18.9141,18.918 l 0,101.422 c 0,10.445 8.4688,18.914 18.9141,18.914" />
                          <path
                             inkscape:connector-curvature="0"
                             id="path4048-1-4-41-1-3"
                             style="fill:#000000;fill-opacity:1;stroke:#ffffff;stroke-width:4;stroke-linecap:round;stroke-linejoin:round;stroke-miterlimit:4;stroke-dasharray:none;stroke-opacity:1"
                             d="m 83.75,264.453 160.543,0 c 10.441,0 18.914,-8.469 18.914,-18.914 l 0,-101.422 c 0,-10.449 -8.473,-18.918 -18.914,-18.918 l -160.543,0 c -10.4453,0 -18.9141,8.469 -18.9141,18.918 l 0,101.422 c 0,10.445 8.4688,18.914 18.9141,18.914 z" />
                        </g>
                      </g>
                    </g>
                  </g>
                </g>
                <g
                   style="fill:#000000;fill-opacity:1"
                   transform="translate(-86.262,-13.311)"
                   id="g4050-5-9-0-3-1" />
              </g>
            </g>
            <g
               transform="translate(54.633834,-158.46056)"
               id="g27495-9-2-2">
              <path
                 inkscape:transform-center-y="1.5565108"
                 transform="matrix(0.34175571,0,0,0.34175571,257.28745,509.62763)"
                 d="m -88.928573,70.093126 -15.777067,-27.326679 31.554132,-10e-7 z"
                 inkscape:randomized="0"
                 inkscape:rounded="0"
                 inkscape:flatsided="true"
                 sodipodi:arg2="2.6179939"
                 sodipodi:arg1="1.5707963"
                 sodipodi:r2="9.1088934"
                 sodipodi:r1="18.217787"
                 sodipodi:cy="51.87534"
                 sodipodi:cx="-88.928574"
                 sodipodi:sides="3"
                 id="path27450-2-6-5-0"
                 style="fill:none;stroke:#ff0000;stroke-width:2.46374822;stroke-miterlimit:4;stroke-dasharray:none;stroke-opacity:1"
                 sodipodi:type="star" />
              <text
                 inkscape:transform-center-y="1.894036"
                 inkscape:transform-center-x="0.39648438"
                 sodipodi:linespacing="125%"
                 id="text27470-5-4-6-5"
                 y="530.88123"
                 x="225.29208"
                 style="font-style:normal;font-weight:normal;font-size:10px;line-height:125%;font-family:Sans;letter-spacing:0px;word-spacing:0px;fill:#000000;fill-opacity:1;stroke:none"
                 xml:space="preserve"><tspan
                   style="font-size:8px"
                   y="530.88123"
                   x="225.29208"
                   id="tspan27472-6-4-57-2"
                   sodipodi:role="line">!</tspan></text>
            </g>
          </g>
          <path
             style="display:inline;fill:none;stroke:#000000;stroke-width:1px;stroke-linecap:butt;stroke-linejoin:miter;stroke-opacity:1"
             d="m -583.65635,551.56561 -18.3448,47.38155"
             id="path15753"
             inkscape:connector-type="polyline"
             inkscape:connector-curvature="0"
             inkscape:connection-start-point="d4"
             inkscape:connection-start="#g15437" />
          <text
             sodipodi:linespacing="125%"
             id="text16557-4-90-9-7-7"
             y="543.11896"
             x="-685.14246"
             style="font-style:normal;font-weight:normal;font-size:10px;line-height:125%;font-family:Sans;letter-spacing:0px;word-spacing:0px;opacity:1;fill:#000000;fill-opacity:1;stroke:none"
             xml:space="preserve"><tspan
               y="543.11896"
               x="-685.14246"
               id="tspan16559-7-9-5-2-0"
               sodipodi:role="line">A</tspan></text>
          <flowRoot
             transform="translate(-896.3446,455.83472)"
             xml:space="preserve"
             id="flowRoot3860-2-2-2-2-2"
             style="font-style:normal;font-weight:normal;font-size:10px;line-height:125%;font-family:Sans;letter-spacing:0px;word-spacing:0px;fill:#000000;fill-opacity:1;stroke:none"><flowRegion
               id="flowRegion3862-6-5-6-3-6"><rect
                 id="rect3864-4-7-5-10-9"
                 width="32.324875"
                 height="15.152287"
                 x="210.86934"
                 y="67.57856" /></flowRegion><flowPara
               id="flowPara3866-6-3-8-4-8">p=0.2</flowPara></flowRoot>          <path
             style="display:inline;fill:none;stroke:#000000;stroke-width:1px;stroke-linecap:butt;stroke-linejoin:miter;stroke-opacity:1"
             d="m -654.44375,598.93556 17.4143,-0.0586"
             id="path15739-3-1"
             inkscape:connector-type="polyline"
             inkscape:connector-curvature="0" />
          <rect
             style="opacity:1;fill:none;stroke:#000000;stroke-width:1px;stroke-linecap:butt;stroke-linejoin:miter;stroke-opacity:0.50196078"
             id="rect3594-3-9"
             width="33.623005"
             height="127.35399"
             x="-685.71301"
             y="534.9057" />
        </g>
      </g>
      <g
         id="g16695"
         transform="translate(37.352853,-41.114392)">
        <g
           transform="matrix(0.85697544,0,0,-0.85697544,263.83506,327.90903)"
           id="g3942-9-0-7-5-7">
          <g
             style="fill:#db9100;fill-opacity:1"
             transform="matrix(0.7,0,0,0.7,86.262,13.311)"
             id="g3944-5-0-3-3-7">
            <g
               style="fill:#db9100;fill-opacity:1"
               id="g3946-4-09-3-1-3">
              <g
                 style="fill:#db9100;fill-opacity:1"
                 id="g3948-4-6-4-0-1">
                <g
                   style="fill:#db9100;fill-opacity:1"
                   id="g3950-8-8-5-7-6">
                  <g
                     style="fill:#db9100;fill-opacity:1"
                     clip-path="url(#clipPath3954-3-6-5-6-25-6)"
                     id="g3952-0-2-2-0-4">
                    <g
                       style="fill:#db9100;fill-opacity:1"
                       transform="scale(0.1,0.1)"
                       id="g3958-4-7-0-3-0">
                      <path
                         inkscape:connector-curvature="0"
                         id="path3960-0-1-1-1-0"
                         style="fill:#db9100;fill-opacity:1;stroke:#000000;stroke-width:4;stroke-linecap:round;stroke-linejoin:round;stroke-miterlimit:4;stroke-dasharray:none;stroke-opacity:1"
                         d="m 330.953,44.0039 c 4.07,4.8867 -18.16,11.5195 6.863,15.6289 15.985,2.6289 64.391,31.082 -49.132,32.5625" />
                      <path
                         inkscape:connector-curvature="0"
                         id="path3962-6-2-2-5-8"
                         style="fill:#db9100;fill-opacity:1;fill-rule:nonzero;stroke:none"
                         d="m 71.25,52.3242 183.516,0 0,27.7109 -183.516,0 0,-27.7109 z" />
                      <path
                         inkscape:connector-curvature="0"
                         id="path3964-0-4-1-9-2"
                         style="fill:#db9100;fill-opacity:1;stroke:#ffffff;stroke-width:4;stroke-linecap:round;stroke-linejoin:round;stroke-miterlimit:4;stroke-dasharray:none;stroke-opacity:1"
                         d="m 71.25,52.3242 183.516,0 0,27.7109 -183.516,0 0,-27.7109 z" />
                      <path
                         inkscape:connector-curvature="0"
                         id="path3966-5-0-7-9-1"
                         style="fill:#db9100;fill-opacity:1;fill-rule:nonzero;stroke:none"
                         d="m 254.586,52.2227 0,27.8125 37.019,37.6948 0,-28.4878 -37.019,-37.0195" />
                      <path
                         inkscape:connector-curvature="0"
                         id="path3968-6-5-3-7-5"
                         style="fill:#db9100;fill-opacity:1;stroke:#ffffff;stroke-width:4;stroke-linecap:round;stroke-linejoin:round;stroke-miterlimit:4;stroke-dasharray:none;stroke-opacity:1"
                         d="m 254.586,52.2227 0,27.8125 37.019,37.6948 0,-28.4878 -37.019,-37.0195 z" />
                      <path
                         inkscape:connector-curvature="0"
                         id="path3970-5-8-8-9-9"
                         style="fill:#db9100;fill-opacity:1;fill-rule:nonzero;stroke:none"
                         d="m 71.25,47.3242 183.516,0 0,32.7109 -183.516,0 0,-32.7109 z" />
                      <path
                         inkscape:connector-curvature="0"
                         id="path3972-4-4-0-7-2"
                         style="fill:#db9100;fill-opacity:1;stroke:#ffffff;stroke-width:4;stroke-linecap:round;stroke-linejoin:round;stroke-miterlimit:4;stroke-dasharray:none;stroke-opacity:1"
                         d="m 71.25,47.3242 183.516,0 0,32.7109 -183.516,0 0,-32.7109 z" />
                      <path
                         inkscape:connector-curvature="0"
                         id="path3974-9-4-3-3-2"
                         style="fill:#db9100;fill-opacity:1;fill-rule:nonzero;stroke:none"
                         d="m 254.586,47.2227 0,32.8125 37.019,37.6948 0,-33.4878 -37.019,-37.0195" />
                      <path
                         inkscape:connector-curvature="0"
                         id="path3976-4-53-8-3-7"
                         style="fill:#db9100;fill-opacity:1;stroke:#ffffff;stroke-width:4;stroke-linecap:round;stroke-linejoin:round;stroke-miterlimit:4;stroke-dasharray:none;stroke-opacity:1"
                         d="m 254.586,47.2227 0,32.8125 37.019,37.6948 0,-33.4878 -37.019,-37.0195 z" />
                      <path
                         inkscape:connector-curvature="0"
                         id="path3978-6-9-4-8-2"
                         style="fill:#db9100;fill-opacity:1;fill-rule:nonzero;stroke:none"
                         d="m 304.453,122.73 -25.937,-37.6948 -228.3754,0 36.75,37.6948 217.5624,0" />
                      <path
                         inkscape:connector-curvature="0"
                         id="path3980-6-6-8-5-7"
                         style="fill:#db9100;fill-opacity:1;stroke:#ffffff;stroke-width:4;stroke-linecap:round;stroke-linejoin:round;stroke-miterlimit:4;stroke-dasharray:none;stroke-opacity:1"
                         d="m 304.453,122.73 -25.937,-37.6948 -228.3754,0 36.75,37.6948 217.5624,0 z" />
                      <path
                         inkscape:connector-curvature="0"
                         id="path3982-6-3-1-0-9"
                         style="fill:#db9100;fill-opacity:1;fill-rule:nonzero;stroke:none"
                         d="m 49.5859,72.3242 218.512,0 0,12.7109 -218.512,0 0,-12.7109 z" />
                      <path
                         inkscape:connector-curvature="0"
                         id="path3984-1-9-5-9-2"
                         style="fill:#db9100;fill-opacity:1;stroke:#ffffff;stroke-width:4;stroke-linecap:round;stroke-linejoin:round;stroke-miterlimit:4;stroke-dasharray:none;stroke-opacity:1"
                         d="m 49.5859,72.3242 218.512,0 0,12.7109 -218.512,0 0,-12.7109 z" />
                      <path
                         inkscape:connector-curvature="0"
                         id="path3986-9-2-4-8-1"
                         style="fill:#db9100;fill-opacity:1;fill-rule:nonzero;stroke:none"
                         d="m 267.914,72.2227 0,12.8125 37.027,37.6948 0,-13.488 -37.027,-37.0193" />
                      <path
                         inkscape:connector-curvature="0"
                         id="path3988-7-7-5-3-3"
                         style="fill:#db9100;fill-opacity:1;stroke:#ffffff;stroke-width:4;stroke-linecap:round;stroke-linejoin:round;stroke-miterlimit:4;stroke-dasharray:none;stroke-opacity:1"
                         d="m 267.914,72.2227 0,12.8125 37.027,37.6948 0,-13.488 -37.027,-37.0193 z" />
                      <path
                         inkscape:connector-curvature="0"
                         id="path3990-3-7-1-6-0"
                         style="fill:#db9100;fill-opacity:1;fill-rule:nonzero;stroke:none"
                         d="m 304.453,122.73 -25.937,-37.6948 -228.3754,0 36.75,37.6948 217.5624,0" />
                      <path
                         inkscape:connector-curvature="0"
                         id="path3992-9-0-2-8-71"
                         style="fill:#db9100;fill-opacity:1;stroke:#ffffff;stroke-width:4;stroke-linecap:round;stroke-linejoin:round;stroke-miterlimit:4;stroke-dasharray:none;stroke-opacity:1"
                         d="m 304.453,122.73 -25.937,-37.6948 -228.3754,0 36.75,37.6948 217.5624,0 z" />
                      <path
                         inkscape:connector-curvature="0"
                         id="path3994-6-6-0-1-5"
                         style="fill:#db9100;fill-opacity:1;fill-rule:nonzero;stroke:none"
                         d="m 49.5859,72.3242 218.512,0 0,12.7109 -218.512,0 0,-12.7109 z" />
                      <path
                         inkscape:connector-curvature="0"
                         id="path3996-8-9-5-8-5"
                         style="fill:#db9100;fill-opacity:1;stroke:#ffffff;stroke-width:4;stroke-linecap:round;stroke-linejoin:round;stroke-miterlimit:4;stroke-dasharray:none;stroke-opacity:1"
                         d="m 49.5859,72.3242 218.512,0 0,12.7109 -218.512,0 0,-12.7109 z" />
                      <path
                         inkscape:connector-curvature="0"
                         id="path3998-3-79-2-4-79"
                         style="fill:#db9100;fill-opacity:1;fill-rule:nonzero;stroke:none"
                         d="m 267.914,72.2227 0,12.8125 37.027,37.6948 0,-13.488 -37.027,-37.0193" />
                      <path
                         inkscape:connector-curvature="0"
                         id="path4000-5-8-3-6-0"
                         style="fill:#db9100;fill-opacity:1;stroke:#ffffff;stroke-width:4;stroke-linecap:round;stroke-linejoin:round;stroke-miterlimit:4;stroke-dasharray:none;stroke-opacity:1"
                         d="m 267.914,72.2227 0,12.8125 37.027,37.6948 0,-13.488 -37.027,-37.0193 z" />
                      <path
                         inkscape:connector-curvature="0"
                         id="path4002-7-9-4-3-5"
                         style="fill:#db9100;fill-opacity:1;fill-rule:nonzero;stroke:none"
                         d="m 305.637,296.035 -197.332,0 -57.7542,-13.586 228.5822,0 26.504,13.586" />
                      <path
                         inkscape:connector-curvature="0"
                         id="path4004-7-10-9-0-8"
                         style="fill:#db9100;fill-opacity:1;stroke:#ffffff;stroke-width:4;stroke-linecap:round;stroke-linejoin:round;stroke-miterlimit:4;stroke-dasharray:none;stroke-opacity:1"
                         d="m 305.637,296.035 -197.332,0 -57.7542,-13.586 228.5822,0 26.504,13.586 z" />
                      <path
                         inkscape:connector-curvature="0"
                         id="path4006-4-8-1-5-99"
                         style="fill:#db9100;fill-opacity:1;fill-rule:nonzero;stroke:none"
                         d="m 269.258,101.039 -10.094,8.336 -185.414,0 9.7891,-8.336 185.7189,0" />
                      <path
                         inkscape:connector-curvature="0"
                         id="path4008-8-8-1-0-96"
                         style="fill:#db9100;fill-opacity:1;stroke:#ffffff;stroke-width:4;stroke-linecap:round;stroke-linejoin:round;stroke-miterlimit:4;stroke-dasharray:none;stroke-opacity:1"
                         d="m 269.258,101.039 -10.094,8.336 -185.414,0 9.7891,-8.336 185.7189,0 z" />
                      <path
                         inkscape:connector-curvature="0"
                         id="path4010-5-8-5-3-3"
                         style="fill:#db9100;fill-opacity:1;fill-rule:nonzero;stroke:none"
                         d="m 270.383,102.488 -12.778,8.551 47.27,25 -30.418,-30.098 -4.074,-3.453" />
                      <path
                         inkscape:connector-curvature="0"
                         id="path4012-0-0-6-6-1"
                         style="fill:#db9100;fill-opacity:1;stroke:#ffffff;stroke-width:4;stroke-linecap:round;stroke-linejoin:round;stroke-miterlimit:4;stroke-dasharray:none;stroke-opacity:1"
                         d="m 270.383,102.488 -12.778,8.551 47.27,25 -30.418,-30.098 -4.074,-3.453 z" />
                      <path
                         inkscape:connector-curvature="0"
                         id="path4014-2-5-6-2-81"
                         style="fill:#db9100;fill-opacity:1;fill-rule:nonzero;stroke:none"
                         d="m 279.133,282.449 0,-170.469 26.504,24.629 0,159.426 -26.504,-13.586" />
                      <path
                         inkscape:connector-curvature="0"
                         id="path4016-3-9-0-3-3"
                         style="fill:#db9100;fill-opacity:1;stroke:#ffffff;stroke-width:4;stroke-linecap:round;stroke-linejoin:round;stroke-miterlimit:4;stroke-dasharray:none;stroke-opacity:1"
                         d="m 279.133,282.449 0,-170.469 26.504,24.629 0,159.426 -26.504,-13.586 z" />
                      <path
                         inkscape:connector-curvature="0"
                         id="path4018-0-3-8-8-08"
                         style="fill:#db9100;fill-opacity:1;fill-rule:nonzero;stroke:none"
                         d="m 50.5508,110.105 228.582,0 0,172.344 -228.582,0 0,-172.344 z" />
                      <path
                         inkscape:connector-curvature="0"
                         id="path4020-6-1-8-5-2"
                         style="fill:#db9100;fill-opacity:1;stroke:#ffffff;stroke-width:4;stroke-linecap:round;stroke-linejoin:round;stroke-miterlimit:4;stroke-dasharray:none;stroke-opacity:1"
                         d="m 50.5508,110.105 228.582,0 0,172.344 -228.582,0 0,-172.344 z" />
                      <path
                         inkscape:connector-curvature="0"
                         id="path4022-3-1-3-4-2"
                         style="fill:#db9100;fill-opacity:1;fill-rule:nonzero;stroke:none"
                         d="m 259.926,2.60156 0,13.25784 28.597,39.5625 0,-24.2227 -28.597,-28.59764" />
                      <path
                         inkscape:connector-curvature="0"
                         id="path4024-6-0-2-4-3"
                         style="fill:#db9100;fill-opacity:1;stroke:#ffffff;stroke-width:4;stroke-linecap:round;stroke-linejoin:round;stroke-miterlimit:4;stroke-dasharray:none;stroke-opacity:1"
                         d="m 259.926,2.60156 0,13.25784 28.597,39.5625 0,-24.2227 -28.597,-28.59764 z" />
                      <path
                         inkscape:connector-curvature="0"
                         id="path4026-9-9-1-6-17"
                         style="fill:#db9100;fill-opacity:1;fill-rule:nonzero;stroke:none"
                         d="m 7.79297,2.60156 252.129,0 0,13.0586 -252.129,0 0,-13.0586 z" />
                      <path
                         inkscape:connector-curvature="0"
                         id="path4028-0-6-0-5-20"
                         style="fill:#db9100;fill-opacity:1;stroke:#ffffff;stroke-width:4;stroke-linecap:round;stroke-linejoin:round;stroke-miterlimit:4;stroke-dasharray:none;stroke-opacity:1"
                         d="m 7.79297,2.60156 252.129,0 0,13.0586 -252.129,0 0,-13.0586 z" />
                      <path
                         inkscape:connector-curvature="0"
                         id="path4030-2-5-7-3-9"
                         style="fill:#db9100;fill-opacity:1;fill-rule:nonzero;stroke:none"
                         d="m 331.625,13.0586 16.727,33.4414 -38.219,0 -16.719,-33.4414 38.211,0" />
                      <path
                         inkscape:connector-curvature="0"
                         id="path4032-6-4-9-7-4"
                         style="fill:#db9100;fill-opacity:1;stroke:#ffffff;stroke-width:4;stroke-linecap:round;stroke-linejoin:round;stroke-miterlimit:4;stroke-dasharray:none;stroke-opacity:1"
                         d="m 331.625,13.0586 16.727,33.4414 -38.219,0 -16.719,-33.4414 38.211,0 z" />
                      <path
                         inkscape:connector-curvature="0"
                         id="path4034-5-9-3-4-523"
                         style="fill:#db9100;fill-opacity:1;fill-rule:nonzero;stroke:none"
                         d="m 293.414,2.30859 38.2109,0 0,10.75 -38.2109,0 0,-10.75 z" />
                      <path
                         inkscape:connector-curvature="0"
                         id="path4036-3-6-0-6-8"
                         style="fill:#db9100;fill-opacity:1;stroke:#ffffff;stroke-width:4;stroke-linecap:round;stroke-linejoin:round;stroke-miterlimit:4;stroke-dasharray:none;stroke-opacity:1"
                         d="m 293.414,2.30859 38.2109,0 0,10.75 -38.2109,0 0,-10.75 z" />
                      <path
                         inkscape:connector-curvature="0"
                         id="path4038-0-3-7-0-9"
                         style="fill:#db9100;fill-opacity:1;fill-rule:nonzero;stroke:none"
                         d="M 331.328,2.01172 331.43,13.0586 348.148,46.5 348.051,23.5117 331.328,2.01172" />
                      <path
                         inkscape:connector-curvature="0"
                         id="path4040-3-4-7-4-8"
                         style="fill:#db9100;fill-opacity:1;stroke:#ffffff;stroke-width:4;stroke-linecap:round;stroke-linejoin:round;stroke-miterlimit:4;stroke-dasharray:none;stroke-opacity:1"
                         d="M 331.328,2.01172 331.43,13.0586 348.148,46.5 348.051,23.5117 331.328,2.01172 Z" />
                      <path
                         inkscape:connector-curvature="0"
                         id="path4042-0-7-8-4-7"
                         style="fill:#db9100;fill-opacity:1;fill-rule:nonzero;stroke:none"
                         d="m 259.926,15.6602 -251.32834,0 28.59764,39.7617 251.3277,0 -28.597,-39.7617" />
                      <path
                         inkscape:connector-curvature="0"
                         id="path4044-6-7-0-2-9"
                         style="fill:#db9100;fill-opacity:1;stroke:#ffffff;stroke-width:4;stroke-linecap:round;stroke-linejoin:round;stroke-miterlimit:4;stroke-dasharray:none;stroke-opacity:1"
                         d="m 259.926,15.6602 -251.32834,0 28.59764,39.7617 251.3277,0 -28.597,-39.7617 z" />
                      <path
                         inkscape:connector-curvature="0"
                         id="path4046-6-1-4-3-0"
                         style="fill:#db9100;fill-opacity:1;fill-rule:nonzero;stroke:none"
                         d="m 83.75,264.453 160.543,0 c 10.441,0 18.914,-8.469 18.914,-18.914 l 0,-101.422 c 0,-10.449 -8.473,-18.918 -18.914,-18.918 l -160.543,0 c -10.4453,0 -18.9141,8.469 -18.9141,18.918 l 0,101.422 c 0,10.445 8.4688,18.914 18.9141,18.914" />
                      <path
                         inkscape:connector-curvature="0"
                         id="path4048-1-4-2-2-39"
                         style="fill:#db9100;fill-opacity:1;stroke:#ffffff;stroke-width:4;stroke-linecap:round;stroke-linejoin:round;stroke-miterlimit:4;stroke-dasharray:none;stroke-opacity:1"
                         d="m 83.75,264.453 160.543,0 c 10.441,0 18.914,-8.469 18.914,-18.914 l 0,-101.422 c 0,-10.449 -8.473,-18.918 -18.914,-18.918 l -160.543,0 c -10.4453,0 -18.9141,8.469 -18.9141,18.918 l 0,101.422 c 0,10.445 8.4688,18.914 18.9141,18.914 z" />
                    </g>
                  </g>
                </g>
              </g>
            </g>
            <g
               style="fill:#db9100;fill-opacity:1"
               transform="translate(-86.262,-13.311)"
               id="g4050-5-9-5-5-2" />
          </g>
        </g>
        <text
           xml:space="preserve"
           style="font-style:normal;font-weight:normal;font-size:10px;line-height:125%;font-family:Sans;letter-spacing:0px;word-spacing:0px;fill:#000000;fill-opacity:1;stroke:none"
           x="348.52786"
           y="323.42233"
           id="text16557-4"
           sodipodi:linespacing="125%"><tspan
             style="text-align:center;text-anchor:middle"
             sodipodi:role="line"
             id="tspan16559-7"
             x="348.52786"
             y="323.42233">studio</tspan><tspan
             style="text-align:center;text-anchor:middle"
             id="tspan13716"
             sodipodi:role="line"
             x="348.52786"
             y="335.92233">(TARGET)</tspan></text>
        <path
           style="fill:none;stroke:#000000;stroke-width:1px;stroke-linecap:butt;stroke-linejoin:miter;stroke-opacity:1"
           d="m 68.928571,73.234127 -0.0303,23.239613"
           id="path7456"
           inkscape:connector-curvature="0"
           transform="translate(279.51885,202.54819)"
           sodipodi:nodetypes="cc" />
      </g>
      <path
         style="fill:none;stroke:#000000;stroke-width:1px;stroke-linecap:butt;stroke-linejoin:miter;stroke-opacity:1"
         d="M 120.33442,57.708817 104.55079,73.113643"
         id="path6847"
         inkscape:connector-curvature="0"
         transform="translate(307.27795,161.4338)" />
    </g>
  </g>
</svg>
