\relax 
\citation{qassrawi2010deception}
\citation{provos2004virtual,grimes2005honeypots}
\citation{tambe2011}
\citation{letchford2013optimal,durkota2015optimal}
\citation{pibil2012game}
\@writefile{toc}{\contentsline {title}{Approximate Solutions for Attack Graph Games with Imperfect Information}{1}}
\@writefile{toc}{\authcount {1}}
\@writefile{toc}{\contentsline {author}{Karel Durkota$^1$, Viliam Lis{\' y}$^1$, Branislav Bo{\v s}ansk{\' y}$^2$, Christopher Kiekintveld$^3$}{1}}
\@writefile{toc}{\contentsline {section}{\numberline {1}Introduction}{1}}
\citation{ingols2006practical,ou2006scalable}
\citation{sheyner2002,noel2008optimal}
\citation{noel2010measuring,homer2013aggregating}
\citation{durkota2015optimal}
\citation{letchford2010computing}
\citation{bovsansky2015sequence}
\@writefile{lof}{\contentsline {figure}{\numberline {1}{\ignorespaces Simple business-like network topology.\relax }}{2}}
\providecommand*\caption@xref[2]{\@setref\relax\@undefined{#1}}
\newlabel{fig:net}{{1}{2}}
\@writefile{toc}{\contentsline {section}{\numberline {2}Background and Definitions}{2}}
\@writefile{toc}{\contentsline {subsubsection}{Computer Network}{2}}
\citation{obes2013attack}
\citation{ammann2002scalable,ou2006scalable,noel2004managing}
\citation{ou2005mulval}
\citation{sawilla2008identifying}
\citation{mell2006common}
\citation{bacic2006mulval}
\citation{obes2013attack,boddy2005course}
\@writefile{toc}{\contentsline {subsubsection}{Attack Graph}{3}}
\@writefile{toc}{\contentsline {section}{\numberline {3}Imperfect-Information HP Allocation Game}{3}}
\@writefile{lof}{\contentsline {figure}{\numberline {2}{\ignorespaces Simple game-tree with host types $T=\{S,D,W\}$, basis $b=(1,0,1)$, $n=3$ and $k=1$ HPs. The defender's costs for HPs: $c_h(1)=4$ and $c_h(3)=1$. The attacker's attack actions $a_1$ and $a_3$ with costs $c_1=8$ and $c_3=4$, resp.; rewards $r_1=40$ and $r_3=10$, resp.; and success probabilities $p_1=0.2$ and $p_3=0.4$. In the chance nodes (except the one in the root) nature chooses weather the previous action: interacts with the HP (h), did not interact with HP and was successful (s) or failed (f) with given probabilities at the labels.\relax }}{4}}
\newlabel{fig:game}{{2}{4}}
\@writefile{toc}{\contentsline {subsection}{\numberline {3.1}Nature Actions}{4}}
\citation{durkota2015optimal}
\@writefile{toc}{\contentsline {subsection}{\numberline {3.2}Defender}{5}}
\@writefile{toc}{\contentsline {subsection}{\numberline {3.3}Attacker}{5}}
\@writefile{toc}{\contentsline {subsection}{\numberline {3.4}Player Utilities}{5}}
\citation{Conitzer2006,tambe2011}
\citation{Conitzer2006}
\citation{conitzer2011commitment}
\citation{letchford2010computing}
\citation{bovsansky2015sequence}
\@writefile{toc}{\contentsline {subsection}{\numberline {3.5}Solution Concepts}{6}}
\citation{durkota2015optimal}
\citation{korzhyk2011stackelberg}
\citation{mcmahan2003planning}
\citation{jain2011double}
\citation{bovsansky2015sequence}
\citation{durkota2015optimal}
\@writefile{toc}{\contentsline {section}{\numberline {4}Game Approximations and Algorithms}{7}}
\newlabel{sec:algorithms}{{4}{7}}
\@writefile{toc}{\contentsline {subsection}{\numberline {4.1}Perfect-Information Game Approximation\nobreakspace  {}\nobreakspace  {}\nobreakspace  {}}{7}}
\@writefile{toc}{\contentsline {subsection}{\numberline {4.2}Zero-sum Imperfect-Information}{7}}
\newlabel{sec:zerosum}{{4.2}{7}}
\citation{durkota2015optimal}
\citation{conitzer2011commitment}
\@writefile{toc}{\contentsline {subsection}{\numberline {4.3}Single LP approximation}{8}}
\@writefile{lof}{\contentsline {figure}{\numberline {3}{\ignorespaces Illustration of extensive-form game translation into set of normal-form games\relax }}{8}}
\newlabel{fig:EFGtoLP}{{3}{8}}
\citation{bernheim1984rationalizable}
\citation{russell2009artificial}
\@writefile{toc}{\contentsline {section}{\numberline {5}Experiments}{10}}
\@writefile{toc}{\contentsline {subsection}{\numberline {5.1}Networks and Attack Graphs}{10}}
\@writefile{toc}{\contentsline {subsection}{\numberline {5.2}Scalability}{10}}
\citation{lisy2013computing}
\citation{lisy2013computing}
\newlabel{fig:scaleHomer}{{4a}{11}}
\newlabel{sub@fig:scaleHomer}{{a}{11}}
\newlabel{fig:scaleGamesec}{{4b}{11}}
\newlabel{sub@fig:scaleGamesec}{{b}{11}}
\@writefile{lof}{\contentsline {figure}{\numberline {4}{\ignorespaces Comparison of runtimes on business (a) and synthetic (b) network.\relax }}{11}}
\newlabel{fig:scale}{{4}{11}}
\@writefile{lof}{\contentsline {figure}{\numberline {5}{\ignorespaces Sample network topologies used in the experiments: \emph  {Local+} on the left and \emph  {Chain} on the right from \cite  {lisy2013computing}.\relax }}{11}}
\newlabel{fig:topologies}{{5}{11}}
\@writefile{toc}{\contentsline {subsection}{\numberline {5.3}Defender's Utility}{11}}
\newlabel{fig:valueHomer}{{6a}{12}}
\newlabel{sub@fig:valueHomer}{{a}{12}}
\newlabel{fig:valueGamesec}{{6b}{12}}
\newlabel{sub@fig:valueGamesec}{{b}{12}}
\@writefile{lof}{\contentsline {figure}{\numberline {6}{\ignorespaces Comparison of leader's utilities for business (a) and synthetic (b) network.\relax }}{12}}
\newlabel{fig:values}{{6}{12}}
\@writefile{lot}{\contentsline {table}{\numberline {1}{\ignorespaces Comparison of relative regrets of the strategies from approximation games.\relax }}{12}}
\newlabel{tab:reg}{{1}{12}}
\@writefile{toc}{\contentsline {section}{\numberline {6}Conclusion}{12}}
\@writefile{toc}{\contentsline {section}{\numberline {7}PLOTS}{12}}
\bibstyle{splncs}
\bibdata{bib.bib}
\bibcite{qassrawi2010deception}{1}
\bibcite{provos2004virtual}{2}
\bibcite{grimes2005honeypots}{3}
\bibcite{tambe2011}{4}
\bibcite{letchford2013optimal}{5}
\bibcite{durkota2015optimal}{6}
\bibcite{pibil2012game}{7}
\newlabel{fig:scaleHomer3}{{7a}{13}}
\newlabel{sub@fig:scaleHomer3}{{a}{13}}
\newlabel{fig:scaleGamesec2}{{7b}{13}}
\newlabel{sub@fig:scaleGamesec2}{{b}{13}}
\@writefile{lof}{\contentsline {figure}{\numberline {7}{\ignorespaces Comparison defender's utilities (a) and runtime (b) on business network.\relax }}{13}}
\newlabel{fig:business}{{7}{13}}
\newlabel{fig:scaleHomer}{{8a}{13}}
\newlabel{sub@fig:scaleHomer}{{a}{13}}
\newlabel{fig:scaleGamesec}{{8b}{13}}
\newlabel{sub@fig:scaleGamesec}{{b}{13}}
\@writefile{lof}{\contentsline {figure}{\numberline {8}{\ignorespaces Comparison defender's utilities (a) and runtime (b) on Synthetic network.\relax }}{13}}
\newlabel{fig:syn}{{8}{13}}
\newlabel{fig:scaleHomer}{{9a}{14}}
\newlabel{sub@fig:scaleHomer}{{a}{14}}
\newlabel{fig:scaleGamesec}{{9b}{14}}
\newlabel{sub@fig:scaleGamesec}{{b}{14}}
\@writefile{lof}{\contentsline {figure}{\numberline {9}{\ignorespaces Comparison defender's utilities (a) and runtime (b) on chain network.\relax }}{14}}
\newlabel{fig:chain}{{9}{14}}
\newlabel{fig:scaleHomer}{{10a}{14}}
\newlabel{sub@fig:scaleHomer}{{a}{14}}
\@writefile{lof}{\contentsline {figure}{\numberline {10}{\ignorespaces Sensitivity analysis\relax }}{14}}
\newlabel{fig:chain}{{10}{14}}
\bibcite{ingols2006practical}{8}
\bibcite{ou2006scalable}{9}
\bibcite{sheyner2002}{10}
\bibcite{noel2008optimal}{11}
\bibcite{noel2010measuring}{12}
\bibcite{homer2013aggregating}{13}
\bibcite{letchford2010computing}{14}
\bibcite{bovsansky2015sequence}{15}
\bibcite{obes2013attack}{16}
\bibcite{ammann2002scalable}{17}
\bibcite{noel2004managing}{18}
\bibcite{ou2005mulval}{19}
\bibcite{sawilla2008identifying}{20}
\bibcite{mell2006common}{21}
\bibcite{bacic2006mulval}{22}
\bibcite{boddy2005course}{23}
\@writefile{lot}{\contentsline {table}{\numberline {2}{\ignorespaces Mean of regrets\relax }}{15}}
\newlabel{tab:reg2}{{2}{15}}
\@writefile{lot}{\contentsline {table}{\numberline {3}{\ignorespaces Old table\relax }}{15}}
\newlabel{tab:reg3}{{3}{15}}
\bibcite{Conitzer2006}{24}
\bibcite{conitzer2011commitment}{25}
\bibcite{korzhyk2011stackelberg}{26}
\bibcite{mcmahan2003planning}{27}
\bibcite{jain2011double}{28}
\bibcite{bernheim1984rationalizable}{29}
\bibcite{russell2009artificial}{30}
\bibcite{lisy2013computing}{31}
