\relax 
\citation{spitzner2003honeypotspap}
\citation{tambe2011}
\@writefile{toc}{\contentsline {section}{\numberline {I}Introduction}{1}}
\@writefile{toc}{\contentsline {section}{\numberline {II}Background}{1}}
\@writefile{toc}{\contentsline {subsection}{\numberline {\unhbox \voidb@x \hbox {II-A}}Game Theory}{1}}
\citation{ou2006scalable}
\citation{wang08dbsec}
\citation{ou2006scalable}
\citation{mell2006common}
\citation{durkota2015optimal}
\@writefile{lof}{\contentsline {figure}{\numberline {1}{\ignorespaces A network and an attack graph representing ways to gain access to the Database.\relax }}{2}}
\providecommand*\caption@xref[2]{\@setref\relax\@undefined{#1}}
\newlabel{fig:ag}{{1}{2}}
\@writefile{toc}{\contentsline {subsection}{\numberline {\unhbox \voidb@x \hbox {II-B}}Attack Graph}{2}}
\@writefile{toc}{\contentsline {section}{\numberline {III}Model Overview}{2}}
\@writefile{toc}{\contentsline {subsection}{\numberline {\unhbox \voidb@x \hbox {III-A}}Defending}{2}}
\@writefile{toc}{\contentsline {subsection}{\numberline {\unhbox \voidb@x \hbox {III-B}}Attacking}{2}}
\@writefile{lof}{\contentsline {figure}{\numberline {2}{\ignorespaces Game tree for a simple network with host-types A and B, with their attack success probabilities 0.2 and 0.8, respectively. Chance plays uniformly into three possible networks, each contains two hosts. The defender chooses possible combinations of allocating two honeypots in each possible network; the blue probability values is a possible defense strategy (OPT$_d$ discussed in Section\nobreakspace  {}VI\hbox {}). The attacker selects attack policy AP$_1$ through AP$_n$ according to the networks' attack graphs. \relax }}{3}}
\newlabel{fig:gameTree}{{2}{3}}
\@writefile{toc}{\contentsline {section}{\numberline {IV}Game Model}{3}}
\citation{durkota2015approximate}
\citation{sommestad2015empirical}
\@writefile{toc}{\contentsline {section}{\numberline {V}Case Study I -- TV Company}{4}}
\@writefile{toc}{\contentsline {subsection}{\numberline {\unhbox \voidb@x \hbox {V-A}}Domain Description}{4}}
\@writefile{lof}{\contentsline {figure}{\numberline {3}{\ignorespaces Network for TV company.\relax }}{4}}
\newlabel{fig:network}{{3}{4}}
\@writefile{toc}{\contentsline {subsection}{\numberline {\unhbox \voidb@x \hbox {V-B}}Game Analysis}{4}}
\citation{kalai1993rational}
\@writefile{toc}{\contentsline {section}{\numberline {VI}Case Study II - Human Strategies}{5}}
\newlabel{sec:survey}{{VI}{5}}
\@writefile{toc}{\contentsline {subsection}{\numberline {\unhbox \voidb@x \hbox {VI-A}}Respondent Behaviors}{5}}
\@writefile{toc}{\contentsline {subsection}{\numberline {\unhbox \voidb@x \hbox {VI-B}}Survey Analysis}{5}}
\@writefile{toc}{\contentsline {section}{\numberline {VII}Conclusion}{5}}
\bibstyle{plain}
\bibdata{bib}
\bibcite{durkota2015approximate}{1}
\bibcite{durkota2015optimal}{2}
\bibcite{kalai1993rational}{3}
\bibcite{mell2006common}{4}
\bibcite{ou2006scalable}{5}
\bibcite{sommestad2015empirical}{6}
\@writefile{lof}{\contentsline {figure}{\numberline {4}{\ignorespaces Respondent's defense strategies and a clustering of the strategies. Each triangle represents the space of possible defender strategies for the network in Figure\nobreakspace  {}2\hbox {} (each corner is a pure strategy).\relax }}{6}}
\newlabel{fig:surveyData}{{4}{6}}
\@writefile{lot}{\contentsline {table}{\numberline {I}{\ignorespaces Defender's utility, standard deviation, 10th and 90th percentile for the defender's strategies (rows) and attacker's strategies (columns). BR$_a$ - attacker's best-response strategy to defense strategy; MR$_d$,MR$_a$ - mean respondent defense (resp. attack) strategy.\relax }}{6}}
\newlabel{tab:survey}{{I}{6}}
\@writefile{toc}{\contentsline {section}{References}{6}}
\bibcite{spitzner2003honeypotspap}{7}
\bibcite{tambe2011}{8}
\bibcite{wang08dbsec}{9}
