This is BibTeX, Version 0.99d (TeX Live 2013/Debian)
Capacity: max_strings=35307, hash_size=35307, hash_prime=30011
The top-level auxiliary file: main.aux
The style file: plain.bst
Database file #1: bib.bib
You've used 9 entries,
            2118 wiz_defined-function locations,
            554 strings with 5461 characters,
and the built_in function-call counts, 3898 in all, are:
= -- 402
> -- 150
< -- 8
+ -- 62
- -- 50
* -- 241
:= -- 583
add.period$ -- 30
call.type$ -- 9
change.case$ -- 51
chr.to.int$ -- 0
cite$ -- 9
duplicate$ -- 176
empty$ -- 314
format.name$ -- 50
if$ -- 876
int.to.chr$ -- 0
int.to.str$ -- 9
missing$ -- 10
newline$ -- 48
num.names$ -- 18
pop$ -- 68
preamble$ -- 1
purify$ -- 43
quote$ -- 0
skip$ -- 142
stack$ -- 0
substring$ -- 280
swap$ -- 72
text.length$ -- 8
text.prefix$ -- 0
top$ -- 0
type$ -- 34
warning$ -- 0
while$ -- 40
width$ -- 10
write$ -- 104
