\relax 
\citation{qassrawi2010deception}
\citation{provos2004virtual,grimes2005honeypots}
\citation{tambe2011}
\citation{letchford2013optimal,durkota2015optimal}
\citation{pibil2012game}
\@writefile{toc}{\contentsline {title}{Approximate Solutions for Attack Graph Games with Imperfect Information}{1}}
\@writefile{toc}{\authcount {1}}
\@writefile{toc}{\contentsline {author}{Karel Durkota$^1$, Viliam Lis{\' y}$^{1,2}$, Branislav Bo{\v s}ansk{\' y}$^3$, Christopher Kiekintveld$^4$}{1}}
\@writefile{toc}{\contentsline {section}{\numberline {1}Introduction}{1}}
\citation{ingols2006practical,ou2006scalable}
\citation{sheyner2002,noel2008optimal}
\citation{noel2010measuring,homer2013aggregating}
\citation{durkota2015optimal}
\citation{letchford2010computing}
\citation{bosansky2015sequence}
\@writefile{toc}{\contentsline {section}{\numberline {2}Background and Definitions}{2}}
\citation{obes2013attack}
\citation{ammann2002scalable,ou2006scalable,noel2004managing}
\citation{ou2005mulval}
\citation{sawilla2008identifying}
\citation{mell2006common}
\citation{bacic2006mulval}
\citation{obes2013attack,boddy2005course}
\providecommand*\caption@xref[2]{\@setref\relax\@undefined{#1}}
\newlabel{fig:netBusiness}{{1a}{3}}
\newlabel{sub@fig:netBusiness}{{a}{3}}
\newlabel{fig:netChain}{{1b}{3}}
\newlabel{sub@fig:netChain}{{b}{3}}
\@writefile{lof}{\contentsline {figure}{\numberline {1}{\ignorespaces Simple (a) business-like and (b) chain network topology.\relax }}{3}}
\newlabel{fig:net}{{1}{3}}
\@writefile{toc}{\contentsline {subsubsection}{Attack Graph}{3}}
\@writefile{toc}{\contentsline {subsubsection}{Attack Policy}{3}}
\@writefile{toc}{\contentsline {section}{\numberline {3}Imperfect Information HP Allocation Game}{4}}
\@writefile{toc}{\contentsline {subsection}{\numberline {3.1}Nature Actions}{4}}
\@writefile{toc}{\contentsline {subsection}{\numberline {3.2}Defender's Actions}{4}}
\@writefile{lof}{\contentsline {figure}{\numberline {2}{\ignorespaces Simple game tree $|T|=3$ host types, basis $b=(1,0,1)$, $n=3$ and $k=1$ HP. The defender's costs for HPs: $c^h_1=4$ and $c^h_3=1$. The attacker's attack actions $1$ and $3$ have costs $c_1=8$ and $c_3=4$, resp.; rewards $r_1=40$ and $r_3=10$, resp.; and success probabilities $p_1=0.2$ and $p_3=0.4$. Attacker's action $0$ denotes the attacker ends his attack, which leads to the terminal state. In the chance nodes (except the one in the root) nature chooses weather the previous action: interacts with the HP (h), did not interact with HP and was successful (s) or failed (f) with the given probabilities.\relax }}{5}}
\newlabel{fig:game}{{2}{5}}
\@writefile{toc}{\contentsline {subsection}{\numberline {3.3}Attacker's Actions}{5}}
\citation{conitzer2006computing,tambe2011}
\citation{letchford2010computing}
\citation{bosansky2015sequence}
\@writefile{toc}{\contentsline {subsection}{\numberline {3.4}Players' Utilities}{6}}
\@writefile{toc}{\contentsline {subsection}{\numberline {3.5}Solution Concepts}{6}}
\@writefile{toc}{\contentsline {section}{\numberline {4}Game Approximations}{6}}
\newlabel{sec:approx}{{4}{6}}
\citation{letchford2010computing}
\citation{letchford2010computing}
\citation{durkota2015optimal}
\citation{korzhyk2011stackelberg}
\citation{koller1996efficient}
\citation{conitzer2011commitment}
\citation{letchford2010computing}
\@writefile{toc}{\contentsline {subsection}{\numberline {4.1}Perfect Information Game Approximation}{7}}
\newlabel{sec:pi}{{4.1}{7}}
\@writefile{toc}{\contentsline {subsection}{\numberline {4.2}Zero-Sum Game Approximation}{7}}
\newlabel{sec:zerosum}{{4.2}{7}}
\@writefile{toc}{\contentsline {subsection}{\numberline {4.3}Single Linear Program Game Approximation}{7}}
\newlabel{sec:slp}{{4.3}{7}}
\citation{von2008extensive}
\citation{letchford2010computing}
\citation{conitzer2011commitment}
\citation{bosansky2014exact}
\citation{bosansky2015sequence}
\@writefile{toc}{\contentsline {section}{\numberline {5}Algorithms}{8}}
\@writefile{toc}{\contentsline {subsection}{\numberline {5.1}Single Oracle}{8}}
\newlabel{sec:so}{{5.1}{8}}
\@writefile{toc}{\contentsline {subsection}{\numberline {5.2}Attacker's Optimal Attack Policy}{8}}
\newlabel{sec:OAPasPOMDP}{{5.2}{8}}
\citation{durkota2015optimal}
\citation{durkota2015optimal}
\citation{conitzer2011commitment}
\newlabel{sec:mdp}{{5.2}{9}}
\@writefile{toc}{\contentsline {subsubsection}{Single Network}{9}}
\@writefile{toc}{\contentsline {subsubsection}{Multiple Networks}{9}}
\citation{bosansky2015sequence}
\citation{bernheim1984rationalizable}
\citation{benisch2010algorithms}
\@writefile{toc}{\contentsline {subsection}{\numberline {5.3}Linear Program for Upper Bounds}{10}}
\newlabel{sec:slp}{{5.3}{10}}
\citation{cassandra1997incremental}
\citation{benisch2010algorithms,cassandra1997incremental}
\newlabel{fig:SLPgame}{{3a}{11}}
\newlabel{sub@fig:SLPgame}{{a}{11}}
\newlabel{fig:EFGtoLP}{{3b}{11}}
\newlabel{sub@fig:EFGtoLP}{{b}{11}}
\@writefile{lof}{\contentsline {figure}{\numberline {3}{\ignorespaces The extensive-form game in (a) translated into two normal-form games in (b).\relax }}{11}}
\newlabel{fig:comparison}{{3}{11}}
\newlabel{sec:CURBasPOMDP}{{5.3}{11}}
\@writefile{toc}{\contentsline {subsubsection}{CURB for Multiple Networks}{11}}
\@writefile{toc}{\contentsline {section}{\numberline {6}Experiments}{11}}
\citation{littman1994witness}
\@writefile{lot}{\contentsline {table}{\numberline {1}{\ignorespaces Host type values and costs for deploying them as honeypots.\relax }}{12}}
\newlabel{tab:b552}{{1}{12}}
\@writefile{toc}{\contentsline {subsection}{\numberline {6.1}Networks and Attack Graphs}{12}}
\newlabel{sec:setting}{{6.1}{12}}
\@writefile{toc}{\contentsline {subsection}{\numberline {6.2}Analytical Approach for CURB for Unstructured Network}{13}}
\newlabel{sec:anal}{{6.2}{13}}
\newlabel{fig:curbPrev}{{4a}{14}}
\newlabel{sub@fig:curbPrev}{{a}{14}}
\newlabel{fig:beliefClassed}{{4b}{14}}
\newlabel{sub@fig:beliefClassed}{{b}{14}}
\@writefile{lof}{\contentsline {figure}{\numberline {4}{\ignorespaces (a) Attack policies from a CURB set for an information set for the unstructured network. (b) Probability space partitioning by action belonging into the categories. \relax }}{14}}
\newlabel{fig:comparison}{{4}{14}}
\@writefile{toc}{\contentsline {subsection}{\numberline {6.3}Scalability}{14}}
\newlabel{sec:scale}{{6.3}{14}}
\@writefile{toc}{\contentsline {subsection}{\numberline {6.4}Solution Quality}{14}}
\newlabel{sec:util}{{6.4}{14}}
\newlabel{fig:busTime}{{5a}{15}}
\newlabel{sub@fig:busTime}{{a}{15}}
\newlabel{fig:chainNsynTime}{{5b}{15}}
\newlabel{sub@fig:chainNsynTime}{{b}{15}}
\newlabel{fig:busUtil}{{5c}{15}}
\newlabel{sub@fig:busUtil}{{c}{15}}
\newlabel{fig:chainUtil}{{5d}{15}}
\newlabel{sub@fig:chainUtil}{{d}{15}}
\newlabel{fig:synUtil}{{5e}{15}}
\newlabel{sub@fig:synUtil}{{e}{15}}
\@writefile{lof}{\contentsline {figure}{\numberline {5}{\ignorespaces Comparison of approximations scalability for (a) business, and (b top) chain and (b bottom) unstructured network. In (c),(d) and (e) we compare the defender's upper bound of relative regret of strategies computed with approximation algorithms business, chain and unstructured network, respectively.\relax }}{15}}
\newlabel{fig:comparison}{{5}{15}}
\newlabel{fig:zsQualityBusiness}{{6a}{16}}
\newlabel{sub@fig:zsQualityBusiness}{{a}{16}}
\newlabel{fig:zsQualityChain}{{6b}{16}}
\newlabel{sub@fig:zsQualityChain}{{b}{16}}
\newlabel{fig:zsQualitySyn}{{6c}{16}}
\newlabel{sub@fig:zsQualitySyn}{{c}{16}}
\@writefile{lof}{\contentsline {figure}{\numberline {6}{\ignorespaces We plot the defender's relative regret dependence on game distance from the zero sum game (computed as mean of $u_a+u_d$) for (a) business, (b) chain and (c) unstructured networks. \relax }}{16}}
\newlabel{fig:zsQuality}{{6}{16}}
\@writefile{toc}{\contentsline {subsection}{\numberline {6.5}Quality of ZS Approximations}{16}}
\newlabel{sec:qualityZS}{{6.5}{16}}
\@writefile{toc}{\contentsline {subsection}{\numberline {6.6}Sensitivity Analysis}{16}}
\newlabel{sec:sensitivity}{{6.6}{16}}
\@writefile{lof}{\contentsline {figure}{\numberline {7}{\ignorespaces The defender's utility regret for perturbed action success probabilities, action costs, and host type values.\relax }}{17}}
\newlabel{fig:perturb}{{7}{17}}
\@writefile{toc}{\contentsline {subsection}{\numberline {6.7}Case Study}{17}}
\newlabel{sec:case}{{6.7}{17}}
\@writefile{lot}{\contentsline {table}{\numberline {2}{\ignorespaces Algorithm comparison for the case-study.\relax }}{18}}
\newlabel{tab:case}{{2}{18}}
\@writefile{toc}{\contentsline {section}{\numberline {7}Conclusion}{18}}
\bibstyle{splncs03}
\bibdata{bib.bib}
\bibcite{ammann2002scalable}{1}
\bibcite{bacic2006mulval}{2}
\bibcite{benisch2010algorithms}{3}
\bibcite{bernheim1984rationalizable}{4}
\bibcite{boddy2005course}{5}
\bibcite{bosansky2014exact}{6}
\bibcite{bosansky2015sequence}{7}
\bibcite{cassandra1997incremental}{8}
\bibcite{conitzer2011commitment}{9}
\bibcite{conitzer2006computing}{10}
\bibcite{durkota2015optimal}{11}
\bibcite{grimes2005honeypots}{12}
\bibcite{homer2013aggregating}{13}
\bibcite{ingols2006practical}{14}
\bibcite{koller1996efficient}{15}
\bibcite{korzhyk2011stackelberg}{16}
\bibcite{letchford2010computing}{17}
\bibcite{letchford2013optimal}{18}
\bibcite{littman1994witness}{19}
\bibcite{mell2006common}{20}
\bibcite{noel2004managing}{21}
\bibcite{noel2008optimal}{22}
\bibcite{noel2010measuring}{23}
\bibcite{obes2013attack}{24}
\bibcite{ou2006scalable}{25}
\bibcite{ou2005mulval}{26}
\bibcite{pibil2012game}{27}
\bibcite{provos2004virtual}{28}
\bibcite{qassrawi2010deception}{29}
\bibcite{sawilla2008identifying}{30}
\bibcite{sheyner2002}{31}
\bibcite{tambe2011}{32}
\bibcite{von2008extensive}{33}
