\relax 
\citation{qassrawi2010deception}
\citation{provos2004virtual}
\citation{grimes2005honeypots}
\citation{carroll2011game}
\citation{cai2009attacker}
\citation{tambe2011}
\citation{ingols2006practical}
\citation{ou2006scalable}
\citation{sheyner2002}
\citation{noel2008optimal}
\citation{noel2010measuring}
\citation{homer2013aggregating}
\citation{greiner2006finding}
\@writefile{toc}{\contentsline {section}{\numberline {1}Introduction}{1}}
\citation{homer2009sound}
\citation{Conitzer2006}
\citation{tambe2011}
\citation{obes2013attack}
\citation{ammann2002scalable}
\citation{ou2006scalable}
\citation{noel2004managing}
\citation{ou2005mulval}
\citation{sawilla2008identifying}
\citation{mell2006common}
\citation{bacic2006mulval}
\@writefile{toc}{\contentsline {section}{\numberline {2}Network Hardening Game Using Honeypots}{2}}
\@writefile{toc}{\contentsline {section}{\numberline {3}Attack Graphs and Attacker's Strategies}{2}}
\citation{obes2013attack}
\citation{boddy2005course}
\citation{bellman1956dynamic}
\citation{greiner2006finding}
\citation{buldas2012upper}
\providecommand*\caption@xref[2]{\@setref\relax\@undefined{#1}}
\newlabel{fig:attackGraph}{{1a}{3}}
\newlabel{sub@fig:attackGraph}{{a}{3}}
\newlabel{fig:realstrategy}{{1b}{3}}
\newlabel{sub@fig:realstrategy}{{b}{3}}
\newlabel{net:main}{{1c}{3}}
\newlabel{sub@net:main}{{c}{3}}
\newlabel{net:local}{{1d}{3}}
\newlabel{sub@net:local}{{d}{3}}
\newlabel{net:localPlus}{{1e}{3}}
\newlabel{sub@net:localPlus}{{e}{3}}
\@writefile{lof}{\contentsline {figure}{\numberline {1}{\ignorespaces (a) Attack graph representing the possible ways of gaining an access to the database. (b) Optimal attack policy for the attack graph in (a); (c,d,e) network topologies with triples (r,l,c) at hosts denoting number of remote (r), local (l) and client (c) vulnerabilities at that host.\relax }}{3}}
\newlabel{fig:fig1}{{1}{3}}
\@writefile{toc}{\contentsline {section}{\numberline {4}Solving AG using MDP}{3}}
\newlabel{sec:method}{{4}{3}}
\@writefile{toc}{\contentsline {subparagraph}{Sibling-Class Pruning}{3}}
\citation{ou2005mulval}
\newlabel{fig:decisionPoint}{{2a}{4}}
\newlabel{sub@fig:decisionPoint}{{a}{4}}
\@writefile{lof}{\contentsline {figure}{\numberline {2}{\ignorespaces An MDP decision point for AG from Fig.\nobreakspace  {}1a\hbox {}.\relax }}{4}}
\@writefile{toc}{\contentsline {subparagraph}{Branch and Bound}{4}}
\newlabel{prop:bb}{{1}{4}}
\@writefile{toc}{\contentsline {section}{\numberline {5}Experiments}{4}}
\@writefile{toc}{\contentsline {subsection}{\numberline {5.1}Optimal Attack Planning}{4}}
\@writefile{toc}{\contentsline {subparagraph}{Pruning Techniques}{4}}
\citation{lisy2013computing}
\citation{isa2007guido}
\citation{hoey1999spudd}
\newlabel{fig:timeL}{{3a}{5}}
\newlabel{sub@fig:timeL}{{a}{5}}
\newlabel{fig:timeLP}{{3b}{5}}
\newlabel{sub@fig:timeLP}{{b}{5}}
\@writefile{lof}{\contentsline {figure}{\numberline {3}{\ignorespaces Time comparison of the pruning techniques. Legend: none - no pruning technique, (-LB) - all but lower bound, (-UB) - all but upper bound, (-ST) - all but Sibling Theorem, (all) - all pruning techniques.\relax }}{5}}
\newlabel{fig:timeComp}{{3}{5}}
\@writefile{lot}{\contentsline {table}{\numberline {1}{\ignorespaces (a) Computation times (in seconds) of computing optimal attack policies by DP, GUIDO and SPUDD. (OoM) - Out of Memory, (Err) - planner exited with segmentation error. (b) Optimal allocation of different number of HPs (columns) to the host types (rows) in the Main-7 network.\relax }}{5}}
\newlabel{tab:tabs}{{1}{5}}
\@writefile{toc}{\contentsline {subparagraph}{Comparison with Other Algorithms}{5}}
\@writefile{toc}{\contentsline {subsection}{\numberline {5.2}Network Hardening Game Analysis}{5}}
\@writefile{toc}{\contentsline {subparagraph}{Scalability Experiment}{5}}
\@writefile{toc}{\contentsline {subsection}{\numberline {5.3}Case-Study}{5}}
\@writefile{toc}{\contentsline {subparagraph}{Defender's loss}{5}}
\@writefile{toc}{\contentsline {subparagraph}{Sensitivity Analysis}{5}}
\newlabel{fig:scalabilitygame}{{4a}{6}}
\newlabel{sub@fig:scalabilitygame}{{a}{6}}
\newlabel{fig:utilityPer}{{4b}{6}}
\newlabel{sub@fig:utilityPer}{{b}{6}}
\newlabel{fig:sepUtilityandCost}{{4c}{6}}
\newlabel{sub@fig:sepUtilityandCost}{{c}{6}}
\newlabel{fig:sens}{{4d}{6}}
\newlabel{sub@fig:sens}{{d}{6}}
\newlabel{fig:sens}{{4d}{6}}
\newlabel{sub@fig:sens}{{d}{6}}
\@writefile{lof}{\contentsline {figure}{\numberline {4}{\ignorespaces (a) Time comparison of solving the game for various networks and the number of HPs; (b) Defender's expected loss given the $\gamma $ and allocating HPs optimally and randomly. (c) Individual parts of the defender's loss: the expected cost of having the network attacked (Attack cost) and cost of deploying the HPs (Honeypot cost). (d) Defender relative regret given the perturbation of action costs, success probabilities and rewards in networks with 1, 3 and 6 HP, and 95th percentile for 6 HPs.\relax }}{6}}
\newlabel{fig:utility}{{4}{6}}
\@writefile{toc}{\contentsline {section}{\numberline {6}Conclusion}{6}}
\bibstyle{named}
\bibdata{bib}
\bibcite{ammann2002scalable}{\citeauthoryear {Ammann \bgroup \em  et al.\egroup }{2002}}
\bibcite{bacic2006mulval}{\citeauthoryear {Bacic \bgroup \em  et al.\egroup }{2006}}
\bibcite{bellman1956dynamic}{\citeauthoryear {Bellman}{1956}}
\bibcite{boddy2005course}{\citeauthoryear {Boddy \bgroup \em  et al.\egroup }{2005}}
\bibcite{buldas2012upper}{\citeauthoryear {Buldas and Stepanenko}{2012}}
\bibcite{cai2009attacker}{\citeauthoryear {Cai \bgroup \em  et al.\egroup }{2009}}
\bibcite{carroll2011game}{\citeauthoryear {Carroll and Grosu}{2011}}
\bibcite{Conitzer2006}{\citeauthoryear {Conitzer and Sandholm}{2006}}
\bibcite{greiner2006finding}{\citeauthoryear {Greiner \bgroup \em  et al.\egroup }{2006}}
\bibcite{grimes2005honeypots}{\citeauthoryear {Grimes \bgroup \em  et al.\egroup }{2005}}
\bibcite{hoey1999spudd}{\citeauthoryear {Hoey \bgroup \em  et al.\egroup }{1999}}
\bibcite{homer2009sound}{\citeauthoryear {Homer \bgroup \em  et al.\egroup }{2009}}
\bibcite{homer2013aggregating}{\citeauthoryear {Homer \bgroup \em  et al.\egroup }{2013}}
\bibcite{ingols2006practical}{\citeauthoryear {Ingols \bgroup \em  et al.\egroup }{2006}}
\bibcite{isa2007guido}{\citeauthoryear {Isa \bgroup \em  et al.\egroup }{2007}}
\bibcite{lisy2013computing}{\citeauthoryear {Lis{\'y} and P{\'i}bil}{2013}}
\bibcite{mell2006common}{\citeauthoryear {Mell \bgroup \em  et al.\egroup }{2006}}
\bibcite{noel2004managing}{\citeauthoryear {Noel and Jajodia}{2004}}
\bibcite{noel2008optimal}{\citeauthoryear {Noel and Jajodia}{2008}}
\bibcite{noel2010measuring}{\citeauthoryear {Noel \bgroup \em  et al.\egroup }{2010}}
\bibcite{obes2013attack}{\citeauthoryear {Obes \bgroup \em  et al.\egroup }{2013}}
\bibcite{ou2005mulval}{\citeauthoryear {Ou \bgroup \em  et al.\egroup }{2005}}
\bibcite{ou2006scalable}{\citeauthoryear {Ou \bgroup \em  et al.\egroup }{2006}}
\bibcite{provos2004virtual}{\citeauthoryear {Provos}{2004}}
\bibcite{qassrawi2010deception}{\citeauthoryear {Qassrawi and Hongli}{2010}}
\bibcite{sawilla2008identifying}{\citeauthoryear {Sawilla and Ou}{2008}}
\bibcite{sheyner2002}{\citeauthoryear {Sheyner \bgroup \em  et al.\egroup }{2002}}
\bibcite{tambe2011}{\citeauthoryear {Tambe}{2011}}
