\relax 
\providecommand\hyper@newdestlabel[2]{}
\providecommand\HyperFirstAtBeginDocument{\AtBeginDocument}
\HyperFirstAtBeginDocument{\ifx\hyper@anchor\@undefined
\global\let\oldcontentsline\contentsline
\gdef\contentsline#1#2#3#4{\oldcontentsline{#1}{#2}{#3}}
\global\let\oldnewlabel\newlabel
\gdef\newlabel#1#2{\newlabelxx{#1}#2}
\gdef\newlabelxx#1#2#3#4#5#6{\oldnewlabel{#1}{{#2}{#3}}}
\AtEndDocument{\ifx\hyper@anchor\@undefined
\let\contentsline\oldcontentsline
\let\newlabel\oldnewlabel
\fi}
\fi}
\global\let\hyper@last\relax 
\gdef\HyperFirstAtBeginDocument#1{#1}
\providecommand\HyField@AuxAddToFields[1]{}
\providecommand\HyField@AuxAddToCoFields[2]{}
\@writefile{toc}{\contentsline {section}{\numberline {1}Experiment 1}{1}{section.1}}
\@writefile{toc}{\contentsline {subsection}{\numberline {1.1}Background of the experiment (only for researchers)}{1}{subsection.1.1}}
\@writefile{toc}{\contentsline {subsection}{\numberline {1.2}Experiment procedure}{1}{subsection.1.2}}
\@writefile{lof}{\contentsline {figure}{\numberline {1}{\ignorespaces Networks generated by Nature.\relax }}{2}{figure.caption.1}}
\providecommand*\caption@xref[2]{\@setref\relax\@undefined{#1}}
\newlabel{fig:origNetworks}{{1}{2}{Networks generated by Nature.\relax }{figure.caption.1}{}}
\@writefile{lof}{\contentsline {figure}{\numberline {2}{\ignorespaces Networks presented in the experiment.\relax }}{3}{figure.caption.2}}
\newlabel{fig:networks}{{2}{3}{Networks presented in the experiment.\relax }{figure.caption.2}{}}
\@writefile{toc}{\contentsline {section}{\numberline {2}Experiment 2}{4}{section.2}}
\@writefile{toc}{\contentsline {subsection}{\numberline {2.1}Purpose of the experiment:}{4}{subsection.2.1}}
\@writefile{toc}{\contentsline {subsection}{\numberline {2.2}Experiment procedure:}{4}{subsection.2.2}}
\bibstyle{abbrv}
\bibdata{bib}
\@writefile{lof}{\contentsline {figure}{\numberline {3}{\ignorespaces Networks generated by Nature.\relax }}{5}{figure.caption.3}}
\newlabel{fig:networkChance1}{{3}{5}{Networks generated by Nature.\relax }{figure.caption.3}{}}
