digraph G {
    graph [
        color = "white",
        concentrate = "true",
        splines = "spline",
    ];
    edge  [
        penwidth = "0.8" ];

1 [label="Access DB\n(+1000)"shape=diamond,style=filled,fillcolor=white];
2 [label="Remote Exploit \n(0.45,5.0)"shape=ellipse,style=filled,fillcolor=white];
3 [label="Pwd Brute Force \n(0.21,9.0)"shape=ellipse,style=filled,fillcolor=white];
4 [label="Database\nVulnerable"shape=box,style=filled,fillcolor=white];
5 [label="Net Access\n(+100)"shape=diamond,style=filled,fillcolor=white];
6 [label="Dictionary"shape=diamond,style=filled,fillcolor=white];
7 [label="Exploit Firewall \n(0.27,5.0)"shape=ellipse,style=filled,fillcolor=white];
8 [label="Send MW Email \n(0.23,2.0)"shape=ellipse,style=filled,fillcolor=white];
9 [label="Create Dictionary \n(1.0,11.0)"shape=ellipse,style=filled,fillcolor=white];
10 [label="Firewall\nVulnerable"shape=box,style=filled,fillcolor=white];
11 [label="Firewall\nAccess"shape=box,style=filled,fillcolor=white];
12 [label="Address\nAvailable"shape=box,style=filled,fillcolor=white];
13 [label="Personal\nData"shape=box,style=filled,fillcolor=white];
1 -> 3
1 -> 2
2 -> 5
2 -> 4
3 -> 5
3 -> 6
5 -> 7
5 -> 8
6 -> 9
7 -> 10
7 -> 11
8 -> 12
9 -> 13
}
