digraph G {
    compound=true;
    graph [
        color = "white",
        splines = "line",
	margin="0,0"
    ];
    edge  [
        penwidth = "0.8" ];

a [shape=ellipse];
b [shape=ellipse];
c [shape=ellipse];
d [shape=ellipse];

start [label="..." shape=rectangle]

  start -> a
  start -> b
  start -> c
  start -> d

a -> am [label="-" style=dashed]
a -> ap [label="+"]
b -> bm [label="-" style=dashed]
b -> bp [label="+"]
c -> cm [label="-" style=dashed]
c -> cp [label="+"]
d -> dm [label="-" style=dashed]
d -> dp [label="+"]

ap [label="a+" shape=triangle];
am [label="a-" shape=triangle];
bp [label="b+" shape=triangle];
bm [label="b-" shape=triangle style=filled fillcolor=lightgrey]
cp [label="c+" shape=triangle];
cm [label="c-" shape=triangle];
dp [label="d+" shape=triangle style=filled fillcolor=lightgrey]
dm [label="d-" shape=triangle style=filled fillcolor=lightgrey]



}
