digraph G {
    compound=true;
    graph [
        color = "white",
        splines = "line",
	margin="0,0"
    ];
    edge  [
        penwidth = "0.8" ];

a [label="a" shape=ellipse];
b [label="a̷" shape=triangle];

start [label="..." shape=rectangle]

  start -> a
  start -> b

a -> am [label="-" style=dashed]
a -> ap [label="+"]

ap [label="a̷" shape=triangle];
am [label="a̷" shape=triangle];



}
