\relax 
\citation{buldas2012upper}
\citation{sarraute2011algorithm}
\citation{greiner2006finding}
\citation{sarraute2011algorithm}
\citation{buldas2012upper}
\global\@namedef{n@author@}{2}
\citation{greiner2006finding}
\citation{lisy2013computing}
\citation{spudd}
\citation{buldas2012upper}
\citation{ammann2002scalable}
\newlabel{fig:attackgraph}{{1}{3}}
\newlabel{fig:realstrategy}{{2}{3}}
\citation{bellman1956dynamic}
\citation{greiner2006finding}
\citation{buldas2012upper}
\newlabel{fig:decisionPoint}{{3}{5}}
\newlabel{fig:decisionSibling}{{4}{7}}
\newlabel{fig:decisionSibling}{{2.3}{8}}
\citation{lisy2013computing}
\bibdata{27_durk}
\bibstyle{plain}
\newlabel{tab:experiments}{{1}{10}}
\global\@namedef{@lastpage}{10}
