This is BibTeX, Version 0.99d (TeX Live 2013/Debian)
Capacity: max_strings=35307, hash_size=35307, hash_prime=30011
The top-level auxiliary file: main.aux
The style file: named.bst
Database file #1: bib.bib
Warning--empty publisher in buldas2012upper
Warning--empty journal in grimes2005honeypots
Warning--empty publisher in lisy2013computing
You've used 28 entries,
            2439 wiz_defined-function locations,
            711 strings with 8852 characters,
and the built_in function-call counts, 13042 in all, are:
= -- 1369
> -- 499
< -- 22
+ -- 171
- -- 166
* -- 958
:= -- 1957
add.period$ -- 90
call.type$ -- 28
change.case$ -- 194
chr.to.int$ -- 28
cite$ -- 31
duplicate$ -- 588
empty$ -- 994
format.name$ -- 202
if$ -- 2836
int.to.chr$ -- 1
int.to.str$ -- 0
missing$ -- 28
newline$ -- 143
num.names$ -- 86
pop$ -- 214
preamble$ -- 1
purify$ -- 222
quote$ -- 0
skip$ -- 509
stack$ -- 0
substring$ -- 727
swap$ -- 217
text.length$ -- 22
text.prefix$ -- 0
top$ -- 0
type$ -- 220
warning$ -- 3
while$ -- 118
width$ -- 31
write$ -- 367
(There were 3 warnings)
