digraph G {
    graph [
        color = "white",
        concentrate = "true",
        splines = "spline",
    ];
    edge  [ penwidth = "0.8" fontsize=20 ];

n12F56F45F25 [label="(remote exploit of a client program)"];
n12F56F45 -> n12F56F45F25 [label="517.2"style=dotted];
n12F56F45T43 [label="(multi-hop access)", style=filled, fillcolor=white];
n12F56F45 -> n12F56F45T43 [label="678.0 "style=solid, style=filled, fillcolor=white];
n12F56F45 [label="(remote exploit of a client program)"];
n12F56 -> n12F56F45 [label="568.920"style=dotted];
n12F56T53F45 [label="(remote exploit of a client program)"];
n12F56T53 -> n12F56T53F45 [label="568.920"style=dotted];
n12F56T53T2 [label="(remote exploit of a server program)", style=filled, fillcolor=gray];
n12F56T53 -> n12F56T53T2 [label="736.0 "style=solid, style=filled, fillcolor=gray];
n12F56T53 [label="(multi-hop access)", style=filled, fillcolor=white];
n12F56 -> n12F56T53 [label="678.0 "style=solid, style=filled, fillcolor=white];
n12F56 [label="(remote exploit of a server program)"];
n12 -> n12F56 [label="1026.736"style=dotted];
n12T9F56F38 [label="(multi-hop access)"];
n12T9F56 -> n12T9F56F38 [label="668.736"style=dotted];
n12T9F56T38 [label="(multi-hop access)", style=filled, fillcolor=white];
n12T9F56 -> n12T9F56T38 [label="756.0 "style=solid, style=filled, fillcolor=white];
n12T9F56 [label="(remote exploit of a server program)"];
n12T9 -> n12T9F56 [label="1122.188"style=dotted];
n12T9T7F56 [label="(remote exploit of a server program)"];
n12T9T7 -> n12T9T7F56 [label="1122.188"style=dotted];
n12T9T7T56 [label="(remote exploit of a server program)", style=filled, fillcolor=white];
n12T9T7 -> n12T9T7T56 [label="1192.0 "style=solid, style=filled, fillcolor=white];
n12T9T7 [label="(remote exploit of a server program)", style=filled, fillcolor=gray];
n12T9 -> n12T9T7 [label="1272.151"style=solid, style=filled, fillcolor=gray];
n12T9 [label="(multi-hop access)", style=filled, fillcolor=gray];
n12 -> n12T9 [label="1214.151"style=solid, style=filled, fillcolor=gray];
n12 [label="(remote exploit of a server program)"];
start [label="Start" shape=square]
start -> n12 [label="1400.219"]
}
