digraph G {
    graph [
        color = "white",
        concentrate = "true",
        splines = "spline",
    ];
    edge  [ penwidth = "0.8" fontsize=20 ];

n12F56F45 [label="(remote exploit of a client program)"];
n12F56 -> n12F56F45 [label="-568.9200000000001"style=dotted];
n12F56T53 [label="(multi-hop access)", style=filled, fillcolor=white];
n12F56 -> n12F56T53 [label="-678.0 "style=solid, style=filled, fillcolor=white];
n12F56 [label="(remote exploit of a server program)"];
n12 -> n12F56 [label="-1026.736"style=dotted];
n12T9F56 [label="(remote exploit of a server program)"];
n12T9 -> n12T9F56 [label="-1122.1888000000001"style=dotted];
n12T9T7 [label="(remote exploit of a server program)", style=filled, fillcolor=gray];
n12T9 -> n12T9T7 [label="-1272.1510400000002 "style=solid, style=filled, fillcolor=gray];
n12T9 [label="(multi-hop access)", style=filled, fillcolor=gray];
n12 -> n12T9 [label="-1214.1510400000002 "style=solid, style=filled, fillcolor=gray];
n12 [label="(remote exploit of a server program)"];
start [label="Start" shape=square]
start -> n12 [label="-1400.2190080000003"]
}
