digraph G {
    graph [
        color = "white",
        concentrate = "true",
        splines = "spline",
    ];
    edge  [
        penwidth = "0.8" ];

n45F25F56F12F [label="T",color=white, shape=box];
n45F25F56F12 -> n45F25F56F12F [label="0.0"style=dotted];
n45F25F56F12T9 [label="9:RULE 4 (multi-hop access)", style=filled, fillcolor=white];
n45F25F56F12 -> n45F25F56F12T9 [label="-400.08000000000004 "style=solid, style=filled, fillcolor=white];
n45F25F56F12 [label="12:RULE 1 (remote exploit of a server program)"];
n45F25F56 -> n45F25F56F12 [label="-416.016"style=dotted];
n45F25F56T53F12 [label="12:RULE 1 (remote exploit of a server program)"];
n45F25F56T53 -> n45F25F56T53F12 [label="-416.016"style=dotted];
n45F25F56T53T2 [label="2:RULE 1 (remote exploit of a server program)", style=filled, fillcolor=gray];
n45F25F56T53 -> n45F25F56T53T2 [label="-736.0 "style=solid, style=filled, fillcolor=gray];
n45F25F56T53 [label="53:RULE 4 (multi-hop access)", style=filled, fillcolor=white];
n45F25F56 -> n45F25F56T53 [label="-678.0 "style=solid, style=filled, fillcolor=white];
n45F25F56 [label="56:RULE 1 (remote exploit of a server program)"];
n45F25 -> n45F25F56 [label="-904.4128000000001"style=dotted];
n45F25T23F56F12 [label="12:RULE 1 (remote exploit of a server program)"];
n45F25T23F56 -> n45F25T23F56F12 [label="-416.016"style=dotted];
n45F25T23F56T53 [label="53:RULE 4 (multi-hop access)", style=filled, fillcolor=white];
n45F25T23F56 -> n45F25T23F56T53 [label="-678.0 "style=solid, style=filled, fillcolor=white];
n45F25T23F56 [label="56:RULE 1 (remote exploit of a server program)"];
n45F25T23 -> n45F25T23F56 [label="-904.4128000000001"style=dotted];
n45F25T23T2F [label="T",color=white, shape=box];
n45F25T23T2 -> n45F25T23T2F [label="0.0"style=dotted];
n45F25T23T2T [label="T",color=white, shape=box, style=filled, fillcolor=gray];
n45F25T23T2 -> n45F25T23T2T [label="-4000.0"];
n45F25T23T2 [label="2:RULE 1 (remote exploit of a server program)", style=filled, fillcolor=white];
n45F25T23 -> n45F25T23T2 [label="-736.0 "style=solid, style=filled, fillcolor=white];
n45F25T23 [label="23:RULE 4 (multi-hop access)", style=filled, fillcolor=white];
n45F25 -> n45F25T23 [label="-678.0 "style=solid, style=filled, fillcolor=white];
n45F25 [label="25:RULE 2 (remote exploit of a client program)"];
n45 -> n45F25 [label="-607.64128"style=dotted];
n45T43F25F56F12 [label="12:RULE 1 (remote exploit of a server program)"];
n45T43F25F56 -> n45T43F25F56F12 [label="-416.016"style=dotted];
n45T43F25F56T53 [label="53:RULE 4 (multi-hop access)", style=filled, fillcolor=white];
n45T43F25F56 -> n45T43F25F56T53 [label="-678.0 "style=solid, style=filled, fillcolor=white];
n45T43F25F56 [label="56:RULE 1 (remote exploit of a server program)"];
n45T43F25 -> n45T43F25F56 [label="-904.4128000000001"style=dotted];
n45T43F25T23F56 [label="56:RULE 1 (remote exploit of a server program)"];
n45T43F25T23 -> n45T43F25T23F56 [label="-904.4128000000001"style=dotted];
n45T43F25T23T2 [label="2:RULE 1 (remote exploit of a server program)", style=filled, fillcolor=white];
n45T43F25T23 -> n45T43F25T23T2 [label="-736.0 "style=solid, style=filled, fillcolor=white];
n45T43F25T23 [label="23:RULE 4 (multi-hop access)", style=filled, fillcolor=white];
n45T43F25 -> n45T43F25T23 [label="-678.0 "style=solid, style=filled, fillcolor=white];
n45T43F25 [label="25:RULE 2 (remote exploit of a client program)"];
n45T43 -> n45T43F25 [label="-607.64128"style=dotted];
n45T43T2F [label="T",color=white, shape=box];
n45T43T2 -> n45T43T2F [label="0.0"style=dotted];
n45T43T2T [label="T",color=white, shape=box, style=filled, fillcolor=gray];
n45T43T2 -> n45T43T2T [label="-4000.0"];
n45T43T2 [label="2:RULE 1 (remote exploit of a server program)", style=filled, fillcolor=white];
n45T43 -> n45T43T2 [label="-736.0 "style=solid, style=filled, fillcolor=white];
n45T43 [label="43:RULE 4 (multi-hop access)", style=filled, fillcolor=white];
n45 -> n45T43 [label="-678.0 "style=solid, style=filled, fillcolor=white];
n45 [label="RULE 2 (remote exploit of a client program)"];
start [label="Start" shape=square]
start -> n45 [label="-577.9641280000001"]
}
